[
    [
        "現在クリーマのキャラスキンが登場中です！今回はそんなクリーマの衣装デザインをご紹介します。",
        "https://pbs.twimg.com/media/DTVt1HdUMAARaKR.jpg"
    ],
    [
        "最後は未来の緋炎騎士団、ニーナのデザイン紹介をお届けします！",
        "https://pbs.twimg.com/media/DWd436IU8AAVqY0.jpg"
    ],
    [
        "お待たせしました！今回ご紹介するのは緋炎騎士団の頼れる副団長ジェラルドの衣装デザイン紹介です！",
        "https://pbs.twimg.com/media/DWd4rFTV4AE4Edh.jpg"
    ],
    [
        "今回の<strong>資料</strong><strong>館</strong>では、台詞が大変印象的な二グルの衣装デザインをご紹介します！",
        "https://pbs.twimg.com/media/DYoszuvVwAABiiR.jpg"
    ],
    [
        "続いてはイーラの衣装デザインのご紹介。性格がよく表れている服装です！",
        "https://pbs.twimg.com/media/DYYT9hiVoAAYT2p.jpg"
    ],
    [
        "バベル戦記第二弾「漆黒の血脈は、煌々と」でイーラと友情を育んだメア。今回はメアの新衣装のご紹介です！",
        "https://pbs.twimg.com/media/DYYTzNlV4AIYfTz.jpg"
    ],
    [
        "現在トリトーのキャラスキンが登場中です！白くて可憐な衣装が印象的ですね。",
        "https://pbs.twimg.com/media/Dbb_6CXU8AA-1xf.jpg"
    ],
    [
        "現在公開中のバベル戦記第三弾「祈りの緑、渇きの大地」にライルの部下として登場したアンク。本日はその衣装デザインをご紹介します！",
        "https://pbs.twimg.com/media/DbM5KACVQAAH023.jpg"
    ],
    [
        "聖石の追憶がついに完結！今回は現在登場中のオライオンの衣装デザインをご紹介です。",
        "https://pbs.twimg.com/media/DckaaAnUQAApeQR.jpg"
    ],
    [
        "聖石の追憶がついに完結！現在登場中の真理念装「継承されし大陸の正義」を装備すると、カノンがロードマスターらしい立派な姿に…！今回はそのデザインをご紹介です。",
        "https://pbs.twimg.com/media/DckaSpwVQAAjtFL.jpg"
    ],
    [
        "現在もウェディングイベントが開催中です！今回はルクレティアのドレスデザインをご紹介。さすが姫様という華やかさですね！",
        "https://pbs.twimg.com/media/DgM1FFHU0AEKWPt.jpg"
    ],
    [
        "今年もウェディングイベントが開催！今回は白くて美しい、ウズマのウェディング姿の詳細をご紹介します。",
        "https://pbs.twimg.com/media/DfoyxjZU8AAXot_.jpg"
    ],
    [
        "バベル戦記第一弾から登場していたレンが、今回ついにユニット化！あわせてデザイン画も公開です！",
        "https://pbs.twimg.com/media/Delc3osUEAAW09h.jpg"
    ],
    [
        "現在テレサの水着スキンが登場中！ということで普段凛々しいテレサの水着衣装デザインのご紹介です。花を愛でるやさしげな表情が印象的なシチュエーションとなっています！",
        "https://pbs.twimg.com/media/Di2w6dJUUAE1PQk.jpg"
    ],
    [
        "現在公開中のバベル戦記第四弾「亡国の乱、時代の岐路に咲く 前編」に登場したリーファ。ワダツミ編では大切な友のため懸命に行動するところが印象的です！今回はその衣装デザインをご紹介です！",
        "https://pbs.twimg.com/media/Dh5SdUNU8AAMBKZ.jpg"
    ],
    [
        "今回ご紹介するのはヨミの新デザインになります！真理念装「誓い、彼岸の花に」を装備すると、ジンと同じく白装束と彼岸花の赤が印象的な衣装で、ヨミの決意が伝わってくるようなデザインになっています！",
        "https://pbs.twimg.com/media/Dh5SRMrUwAAqRgL.jpg"
    ],
    [
        "現在も公開中の水着イベントでリズとアルマに対しお姉さんっぽさを時折見せるレベッカ。そんなレベッカの水着衣装デザインをついにご紹介！レベッカらしいお嬢様っぽい形の水着が可愛らしいですね！",
        "https://pbs.twimg.com/media/DlmJB-aU0AAMD6y.jpg"
    ],
    [
        "現在も水着イベントが公開中です！今回はドロシアの水着衣装デザインの紹介です。白色がメインで普段とは違った可愛らしさがありつつドロシアらしいデザインになっていますね！",
        "https://pbs.twimg.com/media/Dki4ckRUYAAlcfn.jpg"
    ],
    [
        "現在公開中の進撃の巨人コラボイベントは楽しんでいただけているでしょうか？今回はイベント『紡ぐ彼方のメカニカル』で活躍している『ユーディット』の衣装デザインの紹介です！普段から腰の工具箱を持ち歩いているようです！",
        "https://pbs.twimg.com/media/DnBHLmuV4AALUMc.jpg"
    ],
    [
        "聖石の追憶、バベル戦記ワダツミ篇でも登場したバドがついにユニット化！今回はバドの以前より立派になった衣装デザインのご紹介です。普段の様子とは違ったかっこいい姿が印象的ですね！",
        "https://pbs.twimg.com/media/DmS_bNqVsAAw4me.jpg"
    ],
    [
        "現在開催中のハロウィンイベントで活躍しているホオズキの衣装デザインになります。衣装の柄や髪飾りの鬼灯がとても可愛らしく印象的で、鬼灯の花言葉にぴったりな素敵なデザインになってます！",
        "https://pbs.twimg.com/media/DqZ-t66VsAAKXJ3.jpg"
    ],
    [
        "現在開催中のハロウィンイベントはお楽しみいただけているでしょうか？今回は女帝と呼ばれるメルダのハロウィン衣装のご紹介です！女帝と呼ばれるだけあって普段と違った黒い衣装も似合ってますね…！動物たちもメルダにめろめろのようです…！",
        "https://pbs.twimg.com/media/DqV8zGyU4AEpQjo.jpg"
    ],
    [
        "真理念装「パニックハロウィン」にて、メイファンのハロウィン衣装が登場中です！普段とは違った洋風な衣装と上目遣いがかわいいですね。今回はそんなメイファンの衣装デザインのご紹介です！",
        "https://pbs.twimg.com/media/DqFkp8sUUAAGRJ3.jpg"
    ],
    [
        "ルストブルグの仲良し三人組の1人パメラが先日ついに登場しました！今回はそんなパメラの衣装デザインのご紹介です。リボンのようなマントが個性的でとても可愛いデザインとなっています！",
        "https://pbs.twimg.com/media/DscL91KVAAABxx3.jpg"
    ],
    [
        "真理念装『追えない背中を抱いて』にて、アルベルの新しい衣装が登場です！普段とは違った黒の衣装によりピンクの髪色が映える素敵なデザインになっています。今回はそんな新デザインのご紹介です！",
        "https://pbs.twimg.com/media/DrSabM_V4AADCBf.jpg"
    ],
    [
        "今回ご紹介するのは、現在公開中のバベル戦記第五弾スロウスシュタイン編で登場したヴィルヘルムの衣装デザインです！本編では飄々とした態度とアウトローな見た目とは反対に、約束に対して真面目に向き合う姿がとても印象的です！",
        "https://pbs.twimg.com/media/Dq_UN-6VYAAFoPg.jpg"
    ],
    [
        "現在もクリスマスイベントが開催中です！そこで今回はクリーマのクリスマス衣装の詳細をご紹介します。冬らしいコートと髪を下ろした姿が新鮮でとても可愛いですね！",
        "https://pbs.twimg.com/media/Duxh4VeU0AAmR5Q.jpg"
    ],
    [
        "今年もクリスマスがやってきました！今回ご紹介するのはクリスマスイベントで活躍中のビルギッタのクリスマス衣装のご紹介です。赤と白のドレスが普段とは違った雰囲気で素敵なデザインとなっています！",
        "https://pbs.twimg.com/media/Dum2FYwUYAIhkJQ.jpg"
    ],
    [
        "普段のクールな見た目や口調とは反対に、褒められると照れてしまう可愛い一面も持ったシェリル。今回はそんなのシェリルの衣装デザインのご紹介です！異端審問官の制服はこんな風になってたんですね…！",
        "https://pbs.twimg.com/media/DtzWRN5UUAICQW2.jpg"
    ],
    [
        "真理念装「雪解け。故郷にて」より、カグラの正月衣装が登場中です！さすがワダツミ王家…とても豪華な着物です…！今回はそんなカグラの衣装デザインのご紹介です。",
        "https://pbs.twimg.com/media/DxaA8JoU0AAbSC0.jpg"
    ],
    [
        "今回ご紹介するのはオーティマの正月スキンのデザインです！普段の衣装とはまったく違う和服も、とても似合っていてかっこいいです！",
        "https://pbs.twimg.com/media/Dw8MIaNVAAA7kL5.jpg"
    ],
    [
        "真理念装「叶わぬ過去、叶える未来」にて、トリトーの新たな姿が登場です。トリトーの白い衣装にあしらわれた羽がまるで天使のようで、とても素敵なデザインとなっています！",
        "https://pbs.twimg.com/media/Dw7vtFrV4AAAaqj.jpg"
    ],
    [
        "今回ご紹介するのは現在も公開中のバレンタインイベントで活躍するスズカの衣装デザインのご紹介です。普段とまったく違ったニット衣装ですが、桜の飾りがあしらわれていてスズカらしさもありとても可愛いですね！",
        "https://pbs.twimg.com/media/D0PNqm3VAAAlTO6.jpg"
    ],
    [
        "現在公開中のバレンタインイベントで活躍するイツキのバレンタイン衣装をご紹介します！ピンクのニットと後ろのリボンがバレンタインらしさもありつつ、イツキらしい可愛いデザインとなっています！",
        "https://pbs.twimg.com/media/Dz2JkorUwAYVD_Z.jpg"
    ],
    [
        "現在も公開中のホワイトデーイベントで活躍しているモアの新衣装デザインをついにご紹介！恋人たちを応援するための尾こ…もとい見守りを意識したスタイル、探偵らしさもありつつ可愛らしいデザインです！",
        "https://pbs.twimg.com/media/D2p1AkBVYAA928f.jpg"
    ],
    [
        "現在もホワイトデーイベントが開催中です！今回はケヴィンの新衣装のご紹介。普段とはまた違った服装ですが、ケヴィンらしさがありとてもかっこいいデザインですね！",
        "https://pbs.twimg.com/media/D2P56geUcAIU5mQ.jpg"
    ],
    [
        "イベント『ホワイトデー・コンプレックス』にてフレイズの弟ジーノがついに登場しました！兄とは対照的な服装や表情がとても印象的でかっこいいデザインとなっています。今回はそんなジーノの衣装デザインのご紹介です！",
        "https://pbs.twimg.com/media/D1sPrm-VYAExYDo.jpg"
    ],
    [
        "現在開催中のイースターイベントで活躍中のネイカ。今回はネイカのイースター衣装デザインのご紹介です！衣装から小物までウサギや卵のデザインになっていてとても可愛らしいですね！",
        "https://pbs.twimg.com/media/D4gRkLxUEAYG7jy.jpg"
    ],
    [
        "続いてはイベント『九死に一緒のアンダンテ』にて過去が語られたノインの新デザインのご紹介です！現在とはかなり違った印象ですがノインらしさも感じられるとてもかっこいいデザインとなっています！",
        "https://pbs.twimg.com/media/D3yJNihWAAAh_v8.jpg"
    ],
    [
        "イベント『九死に一緒のアンダンテ』にてついにヴェーダ十戒衆の過去が語られました。今回はイベントで登場したツヴァイのデザインをご紹介します！ツヴァイの過去の姿に切なくなりますね…！",
        "https://pbs.twimg.com/media/D3yJBw7WAAEjljH.jpg"
    ],
    [
        "今回はレオニアの新衣装のご紹介です！女性からモテモテのレオニアですが、今回の衣装は女性らしさもありますね。シャツのデザイン改めてみても…すごいですね…！",
        "https://pbs.twimg.com/media/D7UTiI6UIAA0ArY.jpg"
    ],
    [
        "現在開催中のイベント『その師匠、稲妻につき』にてラウラが活躍中！今回はそんなラウラの衣装デザインをご紹介します。強くて美しいラウラらしさのあるデザインになっています！",
        "https://pbs.twimg.com/media/D6_RpAWU8AA25Fq.jpg"
    ]
]