{
    "AWARD_00001": {
        "iname": "AWARD_00001",
        "name": "初心者アルケミスト",
        "expr": "初心者のプレイヤーに与えられる称号",
        "icon": "IT_AWARD",
        "bg": "extra00001",
        "start_at": "1/28/2017",
        "grade": 6,
        "dif": {
            "start_at": "2017/01/28"
        }
    },
    "AWARD_00002": {
        "iname": "AWARD_00002",
        "name": "キャラ好き",
        "expr": "キャラクターが好きなプレイヤーに与えられる称号",
        "icon": "IT_AWARD",
        "bg": "extra00002",
        "start_at": "1/28/2017",
        "grade": 6,
        "dif": {
            "start_at": "2017/01/28"
        }
    },
    "AWARD_00003": {
        "iname": "AWARD_00003",
        "name": "バトル好き",
        "expr": "戦う事が好きなプレイヤーに与えられる称号",
        "icon": "IT_AWARD",
        "bg": "extra00003",
        "start_at": "1/28/2017",
        "grade": 6,
        "dif": {
            "start_at": "2017/01/28"
        }
    },
    "AWARD_00004": {
        "iname": "AWARD_00004",
        "name": "高難度攻略隊",
        "expr": "高難易度クエストを率先してクリアするプレイヤーに与えられる称号",
        "icon": "IT_AWARD",
        "bg": "extra00004",
        "start_at": "1/28/2017",
        "grade": 6,
        "dif": {
            "start_at": "2017/01/28"
        }
    },
    "AWARD_02001": {
        "iname": "AWARD_02001",
        "name": "いっぱしの錬金術師",
        "expr": "所持ユニットのLvを60にしたプレイヤーに与えられる称号",
        "icon": "IT_AWARD",
        "start_at": "1/28/2017",
        "grade": 2,
        "dif": {
            "start_at": "2017/01/28"
        }
    },
    "AWARD_02002": {
        "iname": "AWARD_02002",
        "name": "一人前の錬金術師",
        "expr": "所持ユニットのLvを75にしたプレイヤーに与えられる称号",
        "icon": "IT_AWARD",
        "start_at": "1/28/2017",
        "grade": 3,
        "dif": {
            "start_at": "2017/01/28"
        }
    },
    "AWARD_02003": {
        "iname": "AWARD_02003",
        "name": "期待の錬金術師",
        "expr": "所持ユニットのLvを85にしたプレイヤーに与えられる称号",
        "icon": "IT_AWARD",
        "start_at": "1/28/2017",
        "grade": 4,
        "dif": {
            "start_at": "2017/01/28"
        }
    },
    "AWARD_03001": {
        "iname": "AWARD_03001",
        "name": "見習い鍛冶屋",
        "expr": "武具を10回進化させたプレイヤーに与えられる称号",
        "icon": "IT_AWARD",
        "start_at": "1/28/2017",
        "grade": 1,
        "dif": {
            "start_at": "2017/01/28"
        }
    },
    "AWARD_03002": {
        "iname": "AWARD_03002",
        "name": "新人鍛冶屋",
        "expr": "武具を30回進化させたプレイヤーに与えられる称号",
        "icon": "IT_AWARD",
        "start_at": "1/28/2017",
        "grade": 2,
        "dif": {
            "start_at": "2017/01/28"
        }
    },
    "AWARD_03003": {
        "iname": "AWARD_03003",
        "name": "ベテラン鍛冶屋",
        "expr": "武具を50回進化させたプレイヤーに与えられる称号",
        "icon": "IT_AWARD",
        "start_at": "1/28/2017",
        "grade": 3,
        "dif": {
            "start_at": "2017/01/28"
        }
    },
    "AWARD_04001": {
        "iname": "AWARD_04001",
        "name": "想いをつなぐ者",
        "expr": "「1章5話3幕-10」をクリアしたプレイヤーに与えられる称号",
        "icon": "IT_AWARD",
        "start_at": "1/28/2017",
        "grade": 3,
        "dif": {
            "start_at": "2017/01/28"
        }
    },
    "AWARD_04002": {
        "iname": "AWARD_04002",
        "name": "伊達男のマブダチ",
        "expr": "「2章4話3幕-10」をクリアしたプレイヤーに与えられる称号",
        "icon": "IT_AWARD",
        "start_at": "1/28/2017",
        "grade": 3,
        "dif": {
            "start_at": "2017/01/28"
        }
    },
    "AWARD_04003": {
        "iname": "AWARD_04003",
        "name": "ストーリーリピーター",
        "expr": "ストーリークエストを100回クリアしたプレイヤーに与えられる称号",
        "icon": "IT_AWARD",
        "start_at": "1/28/2017",
        "grade": 2,
        "dif": {
            "start_at": "2017/01/28"
        }
    },
    "AWARD_04004": {
        "iname": "AWARD_04004",
        "name": "ストーリーマニア",
        "expr": "ストーリークエストを500回クリアしたプレイヤーに与えられる称号",
        "icon": "IT_AWARD",
        "start_at": "1/28/2017",
        "grade": 3,
        "dif": {
            "start_at": "2017/01/28"
        }
    },
    "AWARD_04005": {
        "iname": "AWARD_04005",
        "name": "ストーリーホリック",
        "expr": "ストーリークエストを1000回クリアしたプレイヤーに与えられる称号",
        "icon": "IT_AWARD",
        "start_at": "1/28/2017",
        "grade": 4,
        "dif": {
            "start_at": "2017/01/28"
        }
    },
    "AWARD_04006": {
        "iname": "AWARD_04006",
        "name": "ストーリーマスター",
        "expr": "ストーリークエストを5000回クリアしたプレイヤーに与えられる称号",
        "icon": "IT_AWARD",
        "start_at": "1/28/2017",
        "grade": 5,
        "dif": {
            "start_at": "2017/01/28"
        }
    },
    "AWARD_04007": {
        "iname": "AWARD_04007",
        "name": "ハードウォーカー",
        "expr": "ハードクエストを100回クリアしたプレイヤーに与えられる称号",
        "icon": "IT_AWARD",
        "start_at": "1/28/2017",
        "grade": 2,
        "dif": {
            "start_at": "2017/01/28"
        }
    },
    "AWARD_04008": {
        "iname": "AWARD_04008",
        "name": "ハードジョガー",
        "expr": "ハードクエストを500回クリアしたプレイヤーに与えられる称号",
        "icon": "IT_AWARD",
        "start_at": "1/28/2017",
        "grade": 3,
        "dif": {
            "start_at": "2017/01/28"
        }
    },
    "AWARD_04009": {
        "iname": "AWARD_04009",
        "name": "ハードランナー",
        "expr": "ハードクエストを1000回クリアしたプレイヤーに与えられる称号",
        "icon": "IT_AWARD",
        "start_at": "1/28/2017",
        "grade": 4,
        "dif": {
            "start_at": "2017/01/28"
        }
    },
    "AWARD_04010": {
        "iname": "AWARD_04010",
        "name": "ハードアスリート",
        "expr": "ハードクエストを5000回クリアしたプレイヤーに与えられる称号",
        "icon": "IT_AWARD",
        "start_at": "1/28/2017",
        "grade": 5,
        "dif": {
            "start_at": "2017/01/28"
        }
    },
    "AWARD_05001": {
        "iname": "AWARD_05001",
        "name": "駆け出し冒険家",
        "expr": "イベントクエストを100回クリアしたプレイヤーに与えられる称号",
        "icon": "IT_AWARD",
        "start_at": "1/28/2017",
        "grade": 2,
        "dif": {
            "start_at": "2017/01/28"
        }
    },
    "AWARD_05002": {
        "iname": "AWARD_05002",
        "name": "新鋭冒険家",
        "expr": "イベントクエストを500回クリアしたプレイヤーに与えられる称号",
        "icon": "IT_AWARD",
        "start_at": "1/28/2017",
        "grade": 3,
        "dif": {
            "start_at": "2017/01/28"
        }
    },
    "AWARD_05003": {
        "iname": "AWARD_05003",
        "name": "熟練冒険家",
        "expr": "イベントクエストを1000回クリアしたプレイヤーに与えられる称号",
        "icon": "IT_AWARD",
        "start_at": "1/28/2017",
        "grade": 4,
        "dif": {
            "start_at": "2017/01/28"
        }
    },
    "AWARD_05004": {
        "iname": "AWARD_05004",
        "name": "有名冒険家",
        "expr": "イベントクエストを5000回クリアしたプレイヤーに与えられる称号",
        "icon": "IT_AWARD",
        "start_at": "1/28/2017",
        "grade": 5,
        "dif": {
            "start_at": "2017/01/28"
        }
    },
    "AWARD_06001": {
        "iname": "AWARD_06001",
        "name": "マルチサージェント",
        "expr": "マルチクエストを50回クリアしたプレイヤーに与えられる称号",
        "icon": "IT_AWARD",
        "start_at": "1/28/2017",
        "grade": 2,
        "dif": {
            "start_at": "2017/01/28"
        }
    },
    "AWARD_06002": {
        "iname": "AWARD_06002",
        "name": "マルチオフィサー",
        "expr": "マルチクエストを100回クリアしたプレイヤーに与えられる称号",
        "icon": "IT_AWARD",
        "start_at": "1/28/2017",
        "grade": 3,
        "dif": {
            "start_at": "2017/01/28"
        }
    },
    "AWARD_06003": {
        "iname": "AWARD_06003",
        "name": "マルチキャプテン",
        "expr": "マルチクエストを500回クリアしたプレイヤーに与えられる称号",
        "icon": "IT_AWARD",
        "start_at": "1/28/2017",
        "grade": 4,
        "dif": {
            "start_at": "2017/01/28"
        }
    },
    "AWARD_06004": {
        "iname": "AWARD_06004",
        "name": "マルチジェネラル",
        "expr": "マルチクエストを1000回クリアしたプレイヤーに与えられる称号",
        "icon": "IT_AWARD",
        "start_at": "1/28/2017",
        "grade": 5,
        "dif": {
            "start_at": "2017/01/28"
        }
    },
    "AWARD_07001": {
        "iname": "AWARD_07001",
        "name": "闘技場の新星",
        "expr": "闘技場で50回勝利したプレイヤーに与えられる称号",
        "icon": "IT_AWARD",
        "start_at": "1/28/2017",
        "grade": 2,
        "dif": {
            "start_at": "2017/01/28"
        }
    },
    "AWARD_07002": {
        "iname": "AWARD_07002",
        "name": "闘技場の注目株",
        "expr": "闘技場で100回勝利したプレイヤーに与えられる称号",
        "icon": "IT_AWARD",
        "start_at": "1/28/2017",
        "grade": 3,
        "dif": {
            "start_at": "2017/01/28"
        }
    },
    "AWARD_07003": {
        "iname": "AWARD_07003",
        "name": "闘技場の本命",
        "expr": "闘技場で500回勝利したプレイヤーに与えられる称号",
        "icon": "IT_AWARD",
        "start_at": "1/28/2017",
        "grade": 4,
        "dif": {
            "start_at": "2017/01/28"
        }
    },
    "AWARD_07004": {
        "iname": "AWARD_07004",
        "name": "闘技場の英雄",
        "expr": "闘技場で1000回勝利したプレイヤーに与えられる称号",
        "icon": "IT_AWARD",
        "start_at": "1/28/2017",
        "grade": 5,
        "dif": {
            "start_at": "2017/01/28"
        }
    },
    "AWARD_04011": {
        "iname": "AWARD_04011",
        "name": "命の魔女を導く者",
        "expr": "「3章4話3幕-10」をクリアしたプレイヤーに与えられる称号",
        "icon": "IT_AWARD",
        "start_at": "2017/04/21",
        "grade": 3
    },
    "AWARD_07005": {
        "iname": "AWARD_07005",
        "name": "キングオブコロッセオ",
        "expr": "闘技場でランキング1位になったプレイヤーに与えられる称号",
        "icon": "IT_AWARD",
        "start_at": "2017/05/01",
        "grade": 5
    },
    "AWARD_07006": {
        "iname": "AWARD_07006",
        "name": "頂きに迫りし猛者",
        "expr": "闘技場でランキング10位以上にランクインしたプレイヤーに与えられる称号",
        "icon": "IT_AWARD",
        "start_at": "2017/05/01",
        "grade": 4
    },
    "AWARD_07007": {
        "iname": "AWARD_07007",
        "name": "エースファイター",
        "expr": "闘技場でランキング50位以上にランクインしたプレイヤーに与えられる称号",
        "icon": "IT_AWARD",
        "start_at": "2017/05/01",
        "grade": 4
    },
    "AWARD_07008": {
        "iname": "AWARD_07008",
        "name": "百戦錬磨の強者",
        "expr": "闘技場でランキング100位以上にランクインしたプレイヤーに与えられる称号",
        "icon": "IT_AWARD",
        "start_at": "2017/05/01",
        "grade": 3
    },
    "AWARD_07009": {
        "iname": "AWARD_07009",
        "name": "ハードファイター",
        "expr": "闘技場でランキング500位以上にランクインしたプレイヤーに与えられる称号",
        "icon": "IT_AWARD",
        "start_at": "2017/05/01",
        "grade": 3
    },
    "AWARD_07011": {
        "iname": "AWARD_07011",
        "name": "喝采を浴びる勇士",
        "expr": "闘技場でランキング1000位以上にランクインしたプレイヤーに与えられる称号",
        "icon": "IT_AWARD",
        "start_at": "2017/05/01",
        "grade": 2
    },
    "AWARD_07012": {
        "iname": "AWARD_07012",
        "name": "賞賛を受ける闘士",
        "expr": "闘技場でランキング3000位以上にランクインしたプレイヤーに与えられる称号",
        "icon": "IT_AWARD",
        "start_at": "2017/05/01",
        "grade": 2
    },
    "AWARD_07013": {
        "iname": "AWARD_07013",
        "name": "注目される戦士",
        "expr": "闘技場でランキング5000位以上にランクインしたプレイヤーに与えられる称号",
        "icon": "IT_AWARD",
        "start_at": "2017/05/01",
        "grade": 1
    },
    "AWARD_07014": {
        "iname": "AWARD_07014",
        "name": "才能を宿らせし者",
        "expr": "闘技場でランキング10000位以上にランクインしたプレイヤーに与えられる称号",
        "icon": "IT_AWARD",
        "start_at": "2017/05/01",
        "grade": 1
    },
    "AWARD_10001": {
        "iname": "AWARD_10001",
        "name": "誰ガ為に姫は泣く",
        "expr": "「誰ガ為に姫は泣く 5話」をクリアしたプレイヤーに与えられる称号",
        "icon": "IT_AWARD",
        "bg": "extra10001",
        "start_at": "2017/02/01",
        "grade": 6,
        "tab": 1
    },
    "AWARD_10002": {
        "iname": "AWARD_10002",
        "name": "誰ガ為に姫は無く",
        "expr": "「誰ガ為に姫は無く 2話」をクリアしたプレイヤーに与えられる称号",
        "icon": "IT_AWARD",
        "bg": "extra10002",
        "start_at": "2017/02/01",
        "grade": 6,
        "tab": 1
    },
    "AWARD_11001": {
        "iname": "AWARD_11001",
        "name": "1st anniversary",
        "expr": "「誰ガ為のアルケミスト」の1周年を記念した称号",
        "icon": "IT_AWARD",
        "bg": "extra11001",
        "start_at": "2017/02/01",
        "grade": 6,
        "tab": 1
    },
    "AWARD_11002": {
        "iname": "AWARD_11002",
        "name": "誰ガ為愛の表現者",
        "expr": "「タガタメ1周年記念 〜タガタメファンアートコンテスト〜」『藤田D賞』を受賞した称号",
        "icon": "IT_AWARD",
        "bg": "extra11002",
        "start_at": "2017/03/16",
        "grade": 6,
        "tab": 1
    },
    "AWARD_11003": {
        "iname": "AWARD_11003",
        "name": "すばらしきキャラ愛賞",
        "expr": "「タガタメ1周年記念 〜タガタメファンアートコンテスト〜」『石垣AD賞』を受賞した称号",
        "icon": "IT_AWARD",
        "bg": "extra11003",
        "start_at": "2017/03/16",
        "grade": 6,
        "tab": 1
    },
    "AWARD_11004": {
        "iname": "AWARD_11004",
        "name": "タガタメ愛限凸絵師",
        "expr": "「タガタメ1周年記念 〜タガタメファンアートコンテスト〜」『RINZO賞』を受賞した称号",
        "icon": "IT_AWARD",
        "bg": "extra11004",
        "start_at": "2017/03/16",
        "grade": 6,
        "tab": 1
    },
    "AWARD_11005": {
        "iname": "AWARD_11005",
        "name": "錬金絵師・獅子式",
        "expr": "「タガタメ1周年記念 〜タガタメファンアートコンテスト〜」『今泉P賞』を受賞した称号",
        "icon": "IT_AWARD",
        "bg": "extra11005",
        "start_at": "2017/03/16",
        "grade": 6,
        "tab": 1
    },
    "AWARD_12001": {
        "iname": "AWARD_12001",
        "name": "己が限界に臨みし者",
        "expr": "「己が限界に臨みし者」をクリアした猛者に与えられる称号",
        "icon": "IT_AWARD",
        "bg": "extra11006",
        "start_at": "2017/09/01",
        "grade": 6,
        "tab": 1
    },
    "AWARD_12002": {
        "iname": "AWARD_12002",
        "name": "共に限界に臨みし者",
        "expr": "マルチで「己が限界に臨みし者」をクリアした猛者に与えられる称号",
        "icon": "IT_AWARD",
        "bg": "extra11007",
        "start_at": "2017/10/01",
        "grade": 6,
        "tab": 1
    },
    "AWARD_12003": {
        "iname": "AWARD_12003",
        "name": "魔人を屠りし者",
        "expr": "「魔人討滅戦」をクリアした猛者に与えられる称号",
        "icon": "IT_AWARD",
        "bg": "extra11008",
        "start_at": "2017/09/01",
        "grade": 6,
        "tab": 1
    },
    "AWARD_12004": {
        "iname": "AWARD_12004",
        "name": "共に魔人を屠りし者",
        "expr": "マルチで「魔人討滅戦」をクリアした猛者に与えられる称号",
        "icon": "IT_AWARD",
        "bg": "extra11009",
        "start_at": "2017/10/01",
        "grade": 6,
        "tab": 1
    },
    "AWARD_08101": {
        "iname": "AWARD_08101",
        "name": "烈火の経験者",
        "expr": "火属性ユニットだけで高難易度クエストを1種類クリアしたプレイヤーに与えられる称号",
        "icon": "IT_AWARD",
        "start_at": "2017/01/28",
        "grade": 1
    },
    "AWARD_08102": {
        "iname": "AWARD_08102",
        "name": "烈火の開拓者",
        "expr": "火属性ユニットだけで高難易度クエストを10種類クリアしたプレイヤーに与えられる称号",
        "icon": "IT_AWARD",
        "start_at": "2017/01/28",
        "grade": 2
    },
    "AWARD_08103": {
        "iname": "AWARD_08103",
        "name": "烈火の求道者",
        "expr": "火属性ユニットだけで高難易度クエストを25種類クリアしたプレイヤーに与えられる称号",
        "icon": "IT_AWARD",
        "start_at": "2017/01/28",
        "grade": 3
    },
    "AWARD_08201": {
        "iname": "AWARD_08201",
        "name": "蒼水の経験者",
        "expr": "水属性ユニットだけで高難易度クエストを1種類クリアしたプレイヤーに与えられる称号",
        "icon": "IT_AWARD",
        "start_at": "2017/01/28",
        "grade": 1
    },
    "AWARD_08202": {
        "iname": "AWARD_08202",
        "name": "蒼水の開拓者",
        "expr": "水属性ユニットだけで高難易度クエストを10種類クリアしたプレイヤーに与えられる称号",
        "icon": "IT_AWARD",
        "start_at": "2017/01/28",
        "grade": 2
    },
    "AWARD_08203": {
        "iname": "AWARD_08203",
        "name": "蒼水の求道者",
        "expr": "水属性ユニットだけで高難易度クエストを25種類クリアしたプレイヤーに与えられる称号",
        "icon": "IT_AWARD",
        "start_at": "2017/01/28",
        "grade": 3
    },
    "AWARD_08301": {
        "iname": "AWARD_08301",
        "name": "翠風の経験者",
        "expr": "風属性ユニットだけで高難易度クエストを1種類クリアしたプレイヤーに与えられる称号",
        "icon": "IT_AWARD",
        "start_at": "2017/01/28",
        "grade": 1
    },
    "AWARD_08302": {
        "iname": "AWARD_08302",
        "name": "翠風の開拓者",
        "expr": "風属性ユニットだけで高難易度クエストを10種類クリアしたプレイヤーに与えられる称号",
        "icon": "IT_AWARD",
        "start_at": "2017/01/28",
        "grade": 2
    },
    "AWARD_08303": {
        "iname": "AWARD_08303",
        "name": "翠風の求道者",
        "expr": "風属性ユニットだけで高難易度クエストを25種類クリアしたプレイヤーに与えられる称号",
        "icon": "IT_AWARD",
        "start_at": "2017/01/28",
        "grade": 3
    },
    "AWARD_08401": {
        "iname": "AWARD_08401",
        "name": "轟雷の経験者",
        "expr": "雷属性ユニットだけで高難易度クエストを1種類クリアしたプレイヤーに与えられる称号",
        "icon": "IT_AWARD",
        "start_at": "2017/01/28",
        "grade": 1
    },
    "AWARD_08402": {
        "iname": "AWARD_08402",
        "name": "轟雷の開拓者",
        "expr": "雷属性ユニットだけで高難易度クエストを10種類クリアしたプレイヤーに与えられる称号",
        "icon": "IT_AWARD",
        "start_at": "2017/01/28",
        "grade": 2
    },
    "AWARD_08403": {
        "iname": "AWARD_08403",
        "name": "轟雷の求道者",
        "expr": "雷属性ユニットだけで高難易度クエストを25種類クリアしたプレイヤーに与えられる称号",
        "icon": "IT_AWARD",
        "start_at": "2017/01/28",
        "grade": 3
    },
    "AWARD_08501": {
        "iname": "AWARD_08501",
        "name": "暁光の経験者",
        "expr": "光属性ユニットだけで高難易度クエストを1種類クリアしたプレイヤーに与えられる称号",
        "icon": "IT_AWARD",
        "start_at": "2017/01/28",
        "grade": 1
    },
    "AWARD_08502": {
        "iname": "AWARD_08502",
        "name": "暁光の開拓者",
        "expr": "光属性ユニットだけで高難易度クエストを10種類クリアしたプレイヤーに与えられる称号",
        "icon": "IT_AWARD",
        "start_at": "2017/01/28",
        "grade": 2
    },
    "AWARD_08503": {
        "iname": "AWARD_08503",
        "name": "暁光の求道者",
        "expr": "光属性ユニットだけで高難易度クエストを25種類クリアしたプレイヤーに与えられる称号",
        "icon": "IT_AWARD",
        "start_at": "2017/01/28",
        "grade": 3
    },
    "AWARD_08601": {
        "iname": "AWARD_08601",
        "name": "宵闇の経験者",
        "expr": "闇属性ユニットだけで高難易度クエストを1種類クリアしたプレイヤーに与えられる称号",
        "icon": "IT_AWARD",
        "start_at": "2017/01/28",
        "grade": 1
    },
    "AWARD_08602": {
        "iname": "AWARD_08602",
        "name": "宵闇の開拓者",
        "expr": "闇属性ユニットだけで高難易度クエストを10種類クリアしたプレイヤーに与えられる称号",
        "icon": "IT_AWARD",
        "start_at": "2017/01/28",
        "grade": 2
    },
    "AWARD_08603": {
        "iname": "AWARD_08603",
        "name": "宵闇の求道者",
        "expr": "闇属性ユニットだけで高難易度クエストを25種類クリアしたプレイヤーに与えられる称号",
        "icon": "IT_AWARD",
        "start_at": "2017/01/28",
        "grade": 3
    },
    "AWARD_13001": {
        "iname": "AWARD_13001",
        "name": "ファースト",
        "expr": "タワーマッチ10階層に到達したプレイヤーに与えられる称号",
        "icon": "IT_AWARD",
        "start_at": "2017/10/01",
        "grade": 1
    },
    "AWARD_13002": {
        "iname": "AWARD_13002",
        "name": "セカンド",
        "expr": "タワーマッチ20階層に到達したプレイヤーに与えられる称号",
        "icon": "IT_AWARD",
        "start_at": "2017/10/01",
        "grade": 2
    },
    "AWARD_13003": {
        "iname": "AWARD_13003",
        "name": "サード",
        "expr": "タワーマッチ30階層に到達したプレイヤーに与えられる称号",
        "icon": "IT_AWARD",
        "start_at": "2017/10/01",
        "grade": 2
    },
    "AWARD_13004": {
        "iname": "AWARD_13004",
        "name": "フォース",
        "expr": "タワーマッチ40階層に到達したプレイヤーに与えられる称号",
        "icon": "IT_AWARD",
        "start_at": "2017/10/01",
        "grade": 3
    },
    "AWARD_13005": {
        "iname": "AWARD_13005",
        "name": "クラスエース",
        "expr": "タワーマッチ50階層に到達したプレイヤーに与えられる称号",
        "icon": "IT_AWARD",
        "bg": "extra11010",
        "start_at": "2017/10/01",
        "grade": 6
    },
    "AWARD_13006": {
        "iname": "AWARD_13006",
        "name": "ナイトリーダー",
        "expr": "タワーマッチ60階層に到達したプレイヤーに与えられる称号",
        "icon": "IT_AWARD",
        "start_at": "2117/10/01",
        "grade": 4
    },
    "AWARD_13007": {
        "iname": "AWARD_13007",
        "name": "ガーディアン",
        "expr": "タワーマッチ70階層に到達したプレイヤーに与えられる称号",
        "icon": "IT_AWARD",
        "start_at": "2117/10/01",
        "grade": 4
    },
    "AWARD_13008": {
        "iname": "AWARD_13008",
        "name": "パラディン",
        "expr": "タワーマッチ80階層に到達したプレイヤーに与えられる称号",
        "icon": "IT_AWARD",
        "start_at": "2117/10/01",
        "grade": 5
    },
    "AWARD_13009": {
        "iname": "AWARD_13009",
        "name": "グランデューク",
        "expr": "タワーマッチ90階層に到達したプレイヤーに与えられる称号",
        "icon": "IT_AWARD",
        "start_at": "2117/10/01",
        "grade": 5
    },
    "AWARD_13010": {
        "iname": "AWARD_13010",
        "name": "インペリアルロード",
        "expr": "タワーマッチ100階層に到達したプレイヤーに与えられる称号",
        "icon": "IT_AWARD",
        "start_at": "2117/10/01",
        "grade": 6
    },
    "AWARD_14001": {
        "iname": "AWARD_14001",
        "name": "螺旋の協力者",
        "expr": "異層界メビウスで50回助けたプレイヤーに送られる称号",
        "icon": "IT_AWARD",
        "start_at": "2017/10/01",
        "grade": 1
    },
    "AWARD_14002": {
        "iname": "AWARD_14002",
        "name": "螺旋の先導者",
        "expr": "異層界メビウスで100回助けたプレイヤーに送られる称号",
        "icon": "IT_AWARD",
        "start_at": "2017/10/01",
        "grade": 2
    },
    "AWARD_14003": {
        "iname": "AWARD_14003",
        "name": "螺旋の救世主",
        "expr": "異層界メビウスで500回助けたプレイヤーに送られる称号",
        "icon": "IT_AWARD",
        "start_at": "2017/10/01",
        "grade": 2
    },
    "AWARD_14004": {
        "iname": "AWARD_14004",
        "name": "永劫回帰の超人",
        "expr": "異層界メビウスで1000回助けたプレイヤーに送られる称号",
        "icon": "IT_AWARD",
        "start_at": "2017/10/01",
        "grade": 3
    },
    "AWARD_ff15_01": {
        "iname": "AWARD_ff15_01",
        "name": "王を継ぐ者",
        "expr": "コラボEXステージ行動回数ランキングで100位以内にランクインしたプレイヤーに与えられる称号",
        "icon": "IT_AWARD",
        "bg": "award_ff15_01",
        "start_at": "2018/01/11",
        "grade": 6,
        "tab": 1
    },
    "AWARD_ff15_02": {
        "iname": "AWARD_ff15_02",
        "name": "空高く翔る竜騎士",
        "expr": "コラボEXステージ行動回数ランキングで100位以内にランクインしたプレイヤーに与えられる称号",
        "icon": "IT_AWARD",
        "bg": "award_ff15_02",
        "start_at": "2018/01/11",
        "grade": 6,
        "tab": 1
    },
    "AWARD_ff15_03": {
        "iname": "AWARD_ff15_03",
        "name": "冷静知略な参謀",
        "expr": "コラボEXステージ行動回数ランキングで100位以内にランクインしたプレイヤーに与えられる称号",
        "icon": "IT_AWARD",
        "bg": "award_ff15_03",
        "start_at": "2018/01/11",
        "grade": 6,
        "tab": 1
    },
    "AWARD_ff15_04": {
        "iname": "AWARD_ff15_04",
        "name": "王家を守護する者",
        "expr": "コラボEXステージ行動回数ランキングで100位以内にランクインしたプレイヤーに与えられる称号",
        "icon": "IT_AWARD",
        "bg": "award_ff15_04",
        "start_at": "2018/01/11",
        "grade": 6,
        "tab": 1
    },
    "AWARD_ff15_05": {
        "iname": "AWARD_ff15_05",
        "name": "想い出を残す者",
        "expr": "『FF15コラボ』を記念した限定称号",
        "icon": "IT_AWARD",
        "bg": "award_ff15_05",
        "start_at": "2018/01/11",
        "grade": 6,
        "tab": 1
    },
    "AWARD_ff15_06": {
        "iname": "AWARD_ff15_06",
        "name": "未来に向かいし者",
        "expr": "コラボEXステージ行動回数ランキングで100位以内にランクインしたプレイヤーに与えられる称号",
        "icon": "IT_AWARD",
        "bg": "award_ff15_06",
        "start_at": "2018/01/11",
        "grade": 6,
        "tab": 1
    },
    "AWARD_ff15_07": {
        "iname": "AWARD_ff15_07",
        "name": "ルシスを治めし者",
        "expr": "コラボEXステージ行動回数ランキングで100位以内にランクインしたプレイヤーに与えられる称号",
        "icon": "IT_AWARD",
        "bg": "award_ff15_07",
        "start_at": "2018/01/11",
        "grade": 6,
        "tab": 1
    },
    "AWARD_ff15_08": {
        "iname": "AWARD_ff15_08",
        "name": "不死将軍",
        "expr": "コラボEXステージ行動回数ランキングで100位以内にランクインしたプレイヤーに与えられる称号",
        "icon": "IT_AWARD",
        "bg": "award_ff15_08",
        "start_at": "2018/01/11",
        "grade": 6,
        "tab": 1
    },
    "AWARD_AOT_RAID_01": {
        "iname": "AWARD_AOT_RAID_01",
        "name": "獣の巨人討伐称号",
        "expr": "「進撃の巨人」コラボ　レイドクエストエリア1をクリアしたプレイヤーに与えられる称号",
        "icon": "IT_AWARD",
        "bg": "award_aot_01",
        "start_at": "2018/01/11",
        "grade": 6,
        "tab": 1
    },
    "AWARD_AOT_RAID_02": {
        "iname": "AWARD_AOT_RAID_02",
        "name": "超大型巨人討伐称号",
        "expr": "「進撃の巨人」コラボ　レイドクエストエリア3をクリアしたプレイヤーに与えられる称号",
        "icon": "IT_AWARD",
        "bg": "award_aot_02",
        "start_at": "2018/01/11",
        "grade": 6,
        "tab": 1
    },
    "AWARD_AOT_GIANT_YOROI_01": {
        "iname": "AWARD_AOT_GIANT_YOROI_01",
        "name": "鎧の巨人称号",
        "expr": "紡ぐ彼方のメカニカルで「クエストミッション全達成」を10以上達成したプレイヤーに与えられる称号",
        "icon": "IT_AWARD",
        "bg": "award_aot_03",
        "start_at": "2018/01/11",
        "grade": 6,
        "tab": 1
    },
    "AWARD_15001": {
        "iname": "AWARD_15001",
        "name": "想いを結集せし者",
        "expr": "ファントムたちからの手紙を全て集めた称号",
        "icon": "IT_AWARD",
        "bg": "extra15001",
        "start_at": "2018/01/27",
        "grade": 6,
        "tab": 1
    },
    "AWARD_15002": {
        "iname": "AWARD_15002",
        "name": "2周年に集いし者",
        "expr": "「誰ガ為のアルケミスト」の2周年を記念した称号",
        "icon": "IT_AWARD",
        "bg": "extra15002",
        "start_at": "2018/01/27",
        "grade": 6,
        "tab": 1
    },
    "AWARD_15003": {
        "iname": "AWARD_15003",
        "name": "2周年を極めし者",
        "expr": "「誰ガ為のアルケミスト」の2周年を記念した称号",
        "icon": "IT_AWARD",
        "bg": "extra15003",
        "start_at": "2018/01/27",
        "grade": 6,
        "tab": 1
    },
    "AWARD_15004": {
        "iname": "AWARD_15004",
        "name": "禁忌の術を使いし者",
        "expr": "「タガタメ2周年記念 〜タガタメファンアートコンテスト〜」『藤田D賞』を受賞した称号",
        "icon": "IT_AWARD",
        "bg": "extra15004",
        "start_at": "2018/02/08",
        "grade": 6,
        "tab": 1
    },
    "AWARD_15005": {
        "iname": "AWARD_15005",
        "name": "誰ガ為の錬点術師",
        "expr": "「タガタメ2周年記念 〜タガタメファンアートコンテスト〜」『藤田D賞』を受賞した称号",
        "icon": "IT_AWARD",
        "bg": "extra15005",
        "start_at": "2018/02/08",
        "grade": 6,
        "tab": 1
    },
    "AWARD_15006": {
        "iname": "AWARD_15006",
        "name": "君ガ為のキャラ愛絵師",
        "expr": "「タガタメ2周年記念 〜タガタメファンアートコンテスト〜」『石垣AD賞』を受賞した称号",
        "icon": "IT_AWARD",
        "bg": "extra15006",
        "start_at": "2018/02/08",
        "grade": 6,
        "tab": 1
    },
    "AWARD_15007": {
        "iname": "AWARD_15007",
        "name": "砂上の物語をえがく者",
        "expr": "「タガタメ2周年記念 〜タガタメファンアートコンテスト〜」『石垣AD賞』を受賞した称号",
        "icon": "IT_AWARD",
        "bg": "extra15007",
        "start_at": "2018/02/08",
        "grade": 6,
        "tab": 1
    },
    "AWARD_15008": {
        "iname": "AWARD_15008",
        "name": "絵師のマターを持ちし者",
        "expr": "「タガタメ2周年記念 〜タガタメファンアートコンテスト〜」『RINZO賞』を受賞した称号",
        "icon": "IT_AWARD",
        "bg": "extra15008",
        "start_at": "2018/02/08",
        "grade": 6,
        "tab": 1
    },
    "AWARD_15009": {
        "iname": "AWARD_15009",
        "name": "タガタメ愛開眼絵師",
        "expr": "「タガタメ2周年記念 〜タガタメファンアートコンテスト〜」『RINZO賞』を受賞した称号",
        "icon": "IT_AWARD",
        "bg": "extra15009",
        "start_at": "2018/02/08",
        "grade": 6,
        "tab": 1
    },
    "AWARD_15010": {
        "iname": "AWARD_15010",
        "name": "ワダツミ絵師・洋式",
        "expr": "「タガタメ2周年記念 〜タガタメファンアートコンテスト〜」『今泉P賞』を受賞した称号",
        "icon": "IT_AWARD",
        "bg": "extra15010",
        "start_at": "2018/02/08",
        "grade": 6,
        "tab": 1
    },
    "AWARD_15011": {
        "iname": "AWARD_15011",
        "name": "タガタメ道場 門下生",
        "expr": "「リアルタガタメ道場」に入門した称号",
        "icon": "IT_AWARD",
        "bg": "extra15011",
        "start_at": "2018/02/08",
        "grade": 6,
        "tab": 1
    },
    "AWARD_15012": {
        "iname": "AWARD_15012",
        "name": "タガタメ道場 免許皆伝",
        "expr": "「リアルタガタメ道場」で免許皆伝を許された称号",
        "icon": "IT_AWARD",
        "bg": "extra15012",
        "start_at": "2018/02/08",
        "grade": 6,
        "tab": 1
    },
    "AWARD_16001": {
        "iname": "AWARD_16001",
        "name": "太陽に辿り着きし者",
        "expr": "『逆襲の慟哭』行動回数ランキングで100位以内にランクインしたプレイヤーに与えられる称号",
        "icon": "IT_AWARD",
        "bg": "extra16001",
        "start_at": "2018/03/07",
        "grade": 6,
        "tab": 1
    },
    "AWARD_16002": {
        "iname": "AWARD_16002",
        "name": "冥闇を継ぎし者",
        "expr": "「潰えぬ冥闇」をクリアした猛者に与えられる称号",
        "icon": "IT_AWARD",
        "bg": "extra16002",
        "start_at": "2018/03/14",
        "grade": 6,
        "tab": 1
    },
    "AWARD_16003": {
        "iname": "AWARD_16003",
        "name": "共に冥闇を継ぎし者",
        "expr": "マルチで「潰えぬ冥闇」をクリアした猛者に与えられる称号",
        "icon": "IT_AWARD",
        "bg": "extra16003",
        "start_at": "2018/03/14",
        "grade": 6,
        "tab": 1
    },
    "AWARD_16004": {
        "iname": "AWARD_16004",
        "name": "β版 ランクマッチ 1st",
        "expr": "『β版ランクマッチ』のランキングで 1位にランクインしたプレイヤーに与えられる称号",
        "icon": "IT_AWARD",
        "bg": "extra16004",
        "start_at": "2018/03/23",
        "grade": 6,
        "tab": 1
    },
    "AWARD_16005": {
        "iname": "AWARD_16005",
        "name": "β版 ランクマッチ 2nd",
        "expr": "『β版ランクマッチ』のランキングで 2位にランクインしたプレイヤーに与えられる称号",
        "icon": "IT_AWARD",
        "bg": "extra16005",
        "start_at": "2018/03/23",
        "grade": 6,
        "tab": 1
    },
    "AWARD_16006": {
        "iname": "AWARD_16006",
        "name": "β版 ランクマッチ 3rd",
        "expr": "『β版ランクマッチ』のランキングで 3位にランクインしたプレイヤーに与えられる称号",
        "icon": "IT_AWARD",
        "bg": "extra16006",
        "start_at": "2018/03/23",
        "grade": 6,
        "tab": 1
    },
    "AWARD_16007": {
        "iname": "AWARD_16007",
        "name": "漢の魂を持つ者",
        "expr": "真の漢の魂をお買い上げいただいたプレイヤーに与えられる称号",
        "icon": "IT_AWARD",
        "bg": "extra16007",
        "start_at": "2018/04/12",
        "grade": 6,
        "tab": 1
    },
    "AWARD_16008": {
        "iname": "AWARD_16008",
        "name": "第1回 ランクマッチ 1st",
        "expr": "『第1回ランクマッチ』のランキングで 1位にランクインしたプレイヤーに与えられる称号",
        "icon": "IT_AWARD",
        "bg": "extra16008",
        "start_at": "2018/04/26",
        "grade": 6,
        "tab": 1
    },
    "AWARD_16009": {
        "iname": "AWARD_16009",
        "name": "第1回 ランクマッチ 2nd",
        "expr": "『第1回ランクマッチ』のランキングで 2位にランクインしたプレイヤーに与えられる称号",
        "icon": "IT_AWARD",
        "bg": "extra16009",
        "start_at": "2018/04/26",
        "grade": 6,
        "tab": 1
    },
    "AWARD_16010": {
        "iname": "AWARD_16010",
        "name": "第1回 ランクマッチ 3rd",
        "expr": "『第1回ランクマッチ』のランキングで 3位にランクインしたプレイヤーに与えられる称号",
        "icon": "IT_AWARD",
        "bg": "extra16010",
        "start_at": "2018/04/26",
        "grade": 6,
        "tab": 1
    },
    "AWARD_17001": {
        "iname": "AWARD_17001",
        "name": "アルケミィカップ",
        "expr": "『アルケミィカップ』で優勝したプレイヤーに与えられる称号",
        "icon": "IT_AWARD",
        "bg": "extra17001",
        "start_at": "2018/05/18",
        "grade": 6,
        "tab": 1
    },
    "AWARD_17002": {
        "iname": "AWARD_17002",
        "name": "アルケミィカップ",
        "expr": "『アルケミィカップ』に参加したプレイヤーに与えられる称号",
        "icon": "IT_AWARD",
        "bg": "extra17002",
        "start_at": "2018/05/18",
        "grade": 6,
        "tab": 1
    },
    "AWARD_17003": {
        "iname": "AWARD_17003",
        "name": "神戸に集いし者",
        "expr": "「ファンキル・タガタメサミットin神戸」を記念した称号",
        "icon": "IT_AWARD",
        "bg": "extra17003",
        "start_at": "2018/05/18",
        "grade": 6,
        "tab": 1
    },
    "AWARD_17004": {
        "iname": "AWARD_17004",
        "name": "神戸を極めし物",
        "expr": "「ファンキル・タガタメサミットin神戸」を記念した称号",
        "icon": "IT_AWARD",
        "bg": "extra17004",
        "start_at": "2018/05/18",
        "grade": 6,
        "tab": 1
    },
    "AWARD_17005": {
        "iname": "AWARD_17005",
        "name": "ファンキル・タガタメサミットin神戸",
        "expr": "「ファンキル・タガタメサミットin神戸」を記念した称号",
        "icon": "IT_AWARD",
        "bg": "extra17005",
        "start_at": "2018/05/18",
        "grade": 6,
        "tab": 1
    },
    "AWARD_18001": {
        "iname": "AWARD_18001",
        "name": "第2回 ランクマッチ 1st",
        "expr": "『第2回ランクマッチ』のランキングで 1位にランクインしたプレイヤーに与えられる称号",
        "icon": "IT_AWARD",
        "bg": "extra18001",
        "start_at": "2018/06/07",
        "grade": 6,
        "tab": 1
    },
    "AWARD_18002": {
        "iname": "AWARD_18002",
        "name": "第2回 ランクマッチ 2nd",
        "expr": "『第2回ランクマッチ』のランキングで 2位にランクインしたプレイヤーに与えられる称号",
        "icon": "IT_AWARD",
        "bg": "extra18002",
        "start_at": "2018/06/07",
        "grade": 6,
        "tab": 1
    },
    "AWARD_18003": {
        "iname": "AWARD_18003",
        "name": "第2回 ランクマッチ 3rd",
        "expr": "『第2回ランクマッチ』のランキングで 3位にランクインしたプレイヤーに与えられる称号",
        "icon": "IT_AWARD",
        "bg": "extra18003",
        "start_at": "2018/06/07",
        "grade": 6,
        "tab": 1
    },
    "AWARD_19001": {
        "iname": "AWARD_19001",
        "name": "第3回 ランクマッチ 1st",
        "expr": "『第3回ランクマッチ』のランキングで 1位にランクインしたプレイヤーに与えられる称号",
        "icon": "IT_AWARD",
        "bg": "extra19001",
        "start_at": "2018/06/21",
        "grade": 6,
        "tab": 1
    },
    "AWARD_19002": {
        "iname": "AWARD_19002",
        "name": "第3回 ランクマッチ 2nd",
        "expr": "『第3回ランクマッチ』のランキングで 2位にランクインしたプレイヤーに与えられる称号",
        "icon": "IT_AWARD",
        "bg": "extra19002",
        "start_at": "2018/06/21",
        "grade": 6,
        "tab": 1
    },
    "AWARD_19003": {
        "iname": "AWARD_19003",
        "name": "第3回 ランクマッチ 3rd",
        "expr": "『第3回ランクマッチ』のランキングで 3位にランクインしたプレイヤーに与えられる称号",
        "icon": "IT_AWARD",
        "bg": "extra19003",
        "start_at": "2018/06/21",
        "grade": 6,
        "tab": 1
    },
    "AWARD_20001": {
        "iname": "AWARD_20001",
        "name": "タガタメ・オフラインカフェin福岡",
        "expr": "「タガタメ・オフラインカフェin福岡」を記念した称号",
        "icon": "IT_AWARD",
        "bg": "extra20001",
        "start_at": "2018/06/30",
        "grade": 6,
        "tab": 1
    },
    "AWARD_20002": {
        "iname": "AWARD_20002",
        "name": "『英雄』を従えしもの",
        "expr": "コラボEX・極ステージ行動回数ランキングで100位以内にランクインしたプレイヤーに与えられる称号",
        "icon": "IT_AWARD",
        "bg": "extra20002",
        "start_at": "2018/06/30",
        "grade": 6,
        "tab": 1
    },
    "AWARD_20003": {
        "iname": "AWARD_20003",
        "name": "セフィロンに導かれし者",
        "expr": "『5章2話直前EX』行動回数ランキングで100位以内にランクインしたプレイヤーに与えられる称号",
        "icon": "IT_AWARD",
        "bg": "extra20003",
        "start_at": "2018/06/30",
        "grade": 6,
        "tab": 1
    },
    "AWARD_21001": {
        "iname": "AWARD_21001",
        "name": "第4回 ランクマッチ 1st",
        "expr": "『第4回ランクマッチ』のランキングで 1位にランクインしたプレイヤーに与えられる称号",
        "icon": "IT_AWARD",
        "bg": "extra21001",
        "start_at": "2018/07/12",
        "grade": 6,
        "tab": 1
    },
    "AWARD_21002": {
        "iname": "AWARD_21002",
        "name": "第4回 ランクマッチ 2nd",
        "expr": "『第4回ランクマッチ』のランキングで 2位にランクインしたプレイヤーに与えられる称号",
        "icon": "IT_AWARD",
        "bg": "extra21002",
        "start_at": "2018/07/12",
        "grade": 6,
        "tab": 1
    },
    "AWARD_21003": {
        "iname": "AWARD_21003",
        "name": "第4回 ランクマッチ 3rd",
        "expr": "『第4回ランクマッチ』のランキングで 3位にランクインしたプレイヤーに与えられる称号",
        "icon": "IT_AWARD",
        "bg": "extra21003",
        "start_at": "2018/07/12",
        "grade": 6,
        "tab": 1
    },
    "AWARD_22001": {
        "iname": "AWARD_22001",
        "name": "第5回 ランクマッチ 1st",
        "expr": "『第5回ランクマッチ』のランキングで 1位にランクインしたプレイヤーに与えられる称号",
        "icon": "IT_AWARD",
        "bg": "extra22001",
        "start_at": "2018/08/09",
        "grade": 6,
        "tab": 1
    },
    "AWARD_22002": {
        "iname": "AWARD_22002",
        "name": "第5回 ランクマッチ 2nd",
        "expr": "『第5回ランクマッチ』のランキングで 2位にランクインしたプレイヤーに与えられる称号",
        "icon": "IT_AWARD",
        "bg": "extra22002",
        "start_at": "2018/08/09",
        "grade": 6,
        "tab": 1
    },
    "AWARD_22003": {
        "iname": "AWARD_22003",
        "name": "第5回 ランクマッチ 3rd",
        "expr": "『第5回ランクマッチ』のランキングで 3位にランクインしたプレイヤーに与えられる称号",
        "icon": "IT_AWARD",
        "bg": "extra22003",
        "start_at": "2018/08/09",
        "grade": 6,
        "tab": 1
    },
    "AWARD_23001": {
        "iname": "AWARD_23001",
        "name": "第6回 ランクマッチ 1st",
        "expr": "『第6回ランクマッチ』のランキングで 1位にランクインしたプレイヤーに与えられる称号",
        "icon": "IT_AWARD",
        "bg": "extra23001",
        "start_at": "2018/08/23",
        "grade": 6,
        "tab": 1
    },
    "AWARD_23002": {
        "iname": "AWARD_23002",
        "name": "第6回 ランクマッチ 2nd",
        "expr": "『第6回ランクマッチ』のランキングで 2位にランクインしたプレイヤーに与えられる称号",
        "icon": "IT_AWARD",
        "bg": "extra23002",
        "start_at": "2018/08/23",
        "grade": 6,
        "tab": 1
    },
    "AWARD_23003": {
        "iname": "AWARD_23003",
        "name": "第6回 ランクマッチ 3rd",
        "expr": "『第6回ランクマッチ』のランキングで 3位にランクインしたプレイヤーに与えられる称号",
        "icon": "IT_AWARD",
        "bg": "extra23003",
        "start_at": "2018/08/23",
        "grade": 6,
        "tab": 1
    },
    "AWARD_24001": {
        "iname": "AWARD_24001",
        "name": "Summer Beach Alchemist☆",
        "expr": "『ワンダフル☆SUMMER』行動回数ランキングで100位以内にランクインしたプレイヤーに与えられる称号",
        "icon": "IT_AWARD",
        "bg": "extra24001",
        "start_at": "2018/09/03",
        "grade": 6,
        "tab": 1
    }
}