{
    "Challenge_GL_Dis1": {
        "iname": "Challenge_GL_Dis1",
        "begin_at": "9/6/2018",
        "end_at": "10/4/2018 11:59:00 PM",
        "prio": 2
    },
    "Challenge_GL_SUMMERSPORT": {
        "iname": "Challenge_GL_SUMMERSPORT",
        "begin_at": "8/16/2018",
        "end_at": "8/29/2018 11:59:00 PM",
        "prio": 1
    },
    "Challenge_Normal": {
        "iname": "Challenge_Normal",
        "begin_at": false,
        "end_at": false,
        "prio": 0,
        "dif": {}
    },
    "Challenge_Hagaren": {
        "iname": "Challenge_Hagaren",
        "begin_at": "2017/11/10 15:00:00",
        "end_at": "2017/11/24 23:59:59"
    },
    "Challenge_FF15": {
        "iname": "Challenge_FF15",
        "begin_at": "2017/12/27 15:10:00",
        "end_at": "2018/01/27 14:59:59"
    },
    "Challenge_Pok_2": {
        "iname": "Challenge_Pok_2",
        "begin_at": "2018/01/18 15:00:00",
        "end_at": "2018/02/08 14:59:59",
        "prio": 5
    },
    "Challenge_2Year": {
        "iname": "Challenge_2Year",
        "begin_at": "2018/01/28 15:00:00",
        "end_at": false,
        "prio": 7
    },
    "Challenge_500memory": {
        "iname": "Challenge_500memory",
        "begin_at": "2018/03/22 15:00:00",
        "end_at": "2018/03/31 23:59:59",
        "prio": 8
    },
    "Challenge_Interlude": {
        "iname": "Challenge_Interlude",
        "begin_at": "2018/04/12 15:00:00",
        "end_at": "2018/04/30 23:59:59",
        "prio": 9
    },
    "Challenge_Pok_2018": {
        "iname": "Challenge_Pok_2018",
        "begin_at": false,
        "end_at": "2018/05/16 23:59:59",
        "prio": 10
    },
    "Challenge_CRYUNI_2018": {
        "iname": "Challenge_CRYUNI_2018",
        "begin_at": "2018/05/24 15:00:00",
        "end_at": "2018/06/28 23:59:59",
        "prio": 11
    },
    "Challenge_Chapter_5": {
        "iname": "Challenge_Chapter_5",
        "begin_at": false,
        "end_at": "2018/06/30 23:59:59",
        "prio": 12
    },
    "Challenge_Wedding_2018": {
        "iname": "Challenge_Wedding_2018",
        "begin_at": false,
        "end_at": "2018/06/30 23:59:59",
        "prio": 13
    },
    "Challenge_Babel_Wada": {
        "iname": "Challenge_Babel_Wada",
        "begin_at": false,
        "end_at": "2018/07/31 23:59:59",
        "prio": 14
    },
    "Challenge_Valentine": {
        "iname": "Challenge_Valentine",
        "begin_at": "2018/07/19 15:00:00",
        "end_at": "2018/07/26 14:59:59",
        "prio": 15
    },
    "Challenge_ALMA_REBECCA_Story": {
        "iname": "Challenge_ALMA_REBECCA_Story",
        "begin_at": false,
        "end_at": "2018/08/09 23:59:59",
        "prio": 16
    },
    "Challenge_ALMA_REBECCA_Kaiko": {
        "iname": "Challenge_ALMA_REBECCA_Kaiko",
        "begin_at": false,
        "end_at": "2018/08/09 23:59:59",
        "prio": 17
    },
    "Challenge_SEKAIJU_2018": {
        "iname": "Challenge_SEKAIJU_2018",
        "begin_at": false,
        "end_at": "2018/08/16 14:59:59",
        "prio": 18
    },
    "Challenge_HISHARMU_2018": {
        "iname": "Challenge_HISHARMU_2018",
        "begin_at": false,
        "end_at": "2018/08/23 23:59:59",
        "prio": 19
    },
    "Challenge_WONDERFUL_2018": {
        "iname": "Challenge_WONDERFUL_2018",
        "begin_at": false,
        "end_at": "2018/08/31 23:59:59",
        "prio": 20
    },
    "Challenge_AOT_2018": {
        "iname": "Challenge_AOT_2018",
        "begin_at": false,
        "end_at": "2018/09/20 14:59:59",
        "prio": 21
    }
}