{
    "TP_BAS_001": {
        "iname": "TP_BAS_001",
        "type": "Training",
        "order": 2,
        "title": "ユニットレベルをあげよう",
        "images": [
            "TP_BAS_001_01",
            "TP_BAS_001_02"
        ]
    },
    "TP_BAS_002": {
        "iname": "TP_BAS_002",
        "type": "Training",
        "order": 4,
        "title": "装備してジョブレベルをあげよう",
        "images": [
            "TP_BAS_002_01",
            "TP_BAS_002_02"
        ]
    },
    "TP_BAS_003": {
        "iname": "TP_BAS_003",
        "type": "Training",
        "order": 5,
        "title": "限界突破をしてみよう",
        "images": [
            "TP_BAS_003_01",
            "TP_BAS_003_02"
        ]
    },
    "TP_BAS_004": {
        "iname": "TP_BAS_004",
        "type": "Training",
        "order": 6,
        "title": "ユニットを進化させよう",
        "images": [
            "TP_BAS_004_01"
        ]
    },
    "TP_BAS_005": {
        "iname": "TP_BAS_005",
        "type": "Training",
        "order": 7,
        "title": "武具を錬成してみよう",
        "images": [
            "TP_BAS_005_01",
            "TP_BAS_005_02"
        ]
    },
    "TP_BAS_006": {
        "iname": "TP_BAS_006",
        "type": "Training",
        "order": 8,
        "title": "武具を強化してみよう",
        "images": [
            "TP_BAS_006_01"
        ]
    },
    "TP_BAS_007": {
        "iname": "TP_BAS_007",
        "type": "Training",
        "order": 9,
        "title": "武具を進化させてみよう",
        "images": [
            "TP_BAS_007_01"
        ]
    },
    "TP_BAS_008": {
        "iname": "TP_BAS_008",
        "type": "Training",
        "order": 10,
        "title": "武具のアビリティを利用しよう",
        "images": [
            "TP_BAS_008_01"
        ]
    },
    "TP_BAS_009": {
        "iname": "TP_BAS_009",
        "type": "Training",
        "order": 11,
        "title": "真理念装",
        "images": [
            "TP_BAS_009_01",
            "TP_BAS_009_02"
        ]
    },
    "TP_BAS_010": {
        "iname": "TP_BAS_010",
        "type": "Training",
        "order": 12,
        "title": "真理念装の強化",
        "images": [
            "TP_BAS_010_01",
            "TP_BAS_010_02"
        ]
    },
    "TP_BAS_011": {
        "iname": "TP_BAS_011",
        "type": "Training",
        "order": 13,
        "title": "真理開眼",
        "images": [
            "TP_BAS_011_01",
            "TP_BAS_011_02"
        ],
        "hide": true,
        "cond_text": "真理開眼の条件を満たすと開放されます"
    },
    "TP_BAS_012": {
        "iname": "TP_BAS_012",
        "type": "Training",
        "order": 1,
        "title": "バトルの基本",
        "images": [
            "TP_BAS_012_01"
        ]
    },
    "TP_BAS_013": {
        "iname": "TP_BAS_013",
        "type": "Training",
        "order": 3,
        "title": "ミッションを達成しよう",
        "images": [
            "TP_BAS_013_01",
            "TP_BAS_013_02"
        ]
    },
    "TP_BAS_014": {
        "iname": "TP_BAS_014",
        "type": "Training",
        "order": 14,
        "title": "レイドクエストに挑戦しよう",
        "images": [
            "TP_BAS_014_01",
            "TP_BAS_014_02",
            "TP_BAS_014_03",
            "TP_BAS_014_05",
            "TP_BAS_014_06",
            "TP_BAS_014_07"
        ]
    }
}