{
  "revision": 10252710,
  "length": 50624,
  "assets": {
    "Data/MasterParam": {
      "id": "a79952e9",
      "size": 1460730,
      "compSize": 1444922,
      "path": "Data/MasterParam",
      "pathHash": -1006947226,
      "hash": 3882015743,
      "flags": [
        "Compressed",
        "RawData"
      ],
      "dependencies": [],
      "additionalDependencies": [],
      "additionalStreamingDependencies": []
    },
    "UI/BattleResult": {
      "id": "1dae637c",
      "size": 216512,
      "compSize": 187389,
      "path": "UI/BattleResult",
      "pathHash": -1838422352,
      "hash": 392092618,
      "flags": [
        "Tutorial"
      ],
      "dependencies": [
        12610,
        12614,
        12714,
        12630,
        12608,
        12628,
        12631,
        12718,
        12607,
        12715,
        12713,
        12629,
        12599,
        12597,
        12716,
        3,
        12625,
        10861,
        12600,
        12719,
        12717,
        12606
      ],
      "additionalDependencies": [
        12701,
        12702,
        12703,
        12684,
        12704,
        12705,
        12706,
        12707,
        12708,
        12709,
        12710,
        12711,
        12712,
        12728,
        12630,
        12722,
        12723,
        12724,
        12660,
        12720,
        12605,
        3,
        12726,
        12727,
        12721,
        10861,
        12725,
        12656,
        12657,
        12621,
        12623,
        12597,
        12729,
        6,
        7,
        9,
        10,
        11,
        12,
        12614,
        12758,
        12756,
        12757,
        12754,
        12755,
        12600,
        12854,
        12618,
        12785,
        12735,
        12906,
        12698,
        12742,
        12700,
        12655,
        12669,
        12869,
        12667,
        12616,
        12631,
        11013,
        12668,
        12816,
        12717,
        12642,
        11110,
        11149,
        12599,
        11115,
        13335,
        13332,
        13333,
        13334,
        13020,
        12622,
        13337,
        13336,
        13354,
        13498,
        13502,
        13500,
        13499,
        13501,
        13497,
        12719,
        12753,
        12639,
        12752,
        12609,
        12636,
        13331,
        13028,
        12791,
        12790,
        12633,
        12879,
        12637,
        12634
      ],
      "additionalStreamingDependencies": []
    },
    "Assets/UI/Gacha/sprite/gacha_topui.png": {
      "id": "2f66a714",
      "size": 138506,
      "compSize": 114166,
      "path": "Assets/UI/Gacha/sprite/gacha_topui.png",
      "pathHash": 1769887257,
      "hash": 117619008,
      "flags": [
        "Tutorial"
      ],
      "dependencies": [],
      "additionalDependencies": [],
      "additionalStreamingDependencies": []
    },
    "SGDevelopment/Loc/french/Prefabs/UI/BattleResult": {
      "id": "29918627",
      "size": 756073,
      "compSize": 676631,
      "path": "SGDevelopment/Loc/french/Prefabs/UI/BattleResult",
      "pathHash": 119681042,
      "hash": 1269883113,
      "flags": [],
      "dependencies": [
        12610,
        12614,
        12714,
        12630,
        12628,
        12631,
        50326,
        12713,
        12629,
        12599,
        12716,
        3,
        50273,
        10861,
        12600,
        12719,
        50309,
        12606
      ],
      "additionalDependencies": [
        12701,
        12702,
        12703,
        12684,
        12704,
        12705,
        12706,
        12707,
        12708,
        12709,
        12710,
        12711,
        12712,
        12728,
        12630,
        12722,
        12723,
        12724,
        12660,
        12720,
        12605,
        3,
        12726,
        12727,
        12721,
        10861,
        12725,
        12656,
        12657,
        12621,
        12623,
        12597,
        12729,
        6,
        7,
        9,
        10,
        11,
        12,
        12614,
        12600,
        12753,
        12639,
        12752,
        11013,
        12668,
        12609,
        12698,
        12758,
        12756,
        12757,
        12754,
        12755,
        12854,
        12618,
        12785,
        12735,
        12906,
        12742,
        12700,
        12655,
        12669,
        12869,
        12667,
        12616,
        12631,
        12816,
        12717,
        12642,
        11110,
        11149,
        12599,
        11115,
        12636,
        13331,
        13028,
        12791,
        12790,
        12633,
        12879,
        12637,
        12634,
        13335,
        13332,
        13333,
        13334,
        13020,
        12622,
        13337,
        13336,
        13354,
        13498,
        13502,
        13500,
        13499,
        13501,
        13497,
        12719
      ],
      "additionalStreamingDependencies": []
    },
    "SGDevelopment/Loc/german/Prefabs/UI/BattleResult": {
      "id": "8c44abe5",
      "size": 731374,
      "compSize": 653526,
      "path": "SGDevelopment/Loc/german/Prefabs/UI/BattleResult",
      "pathHash": 91994110,
      "hash": 1385855580,
      "flags": [],
      "dependencies": [
        12610,
        12614,
        12714,
        12630,
        12628,
        12631,
        12713,
        12629,
        12599,
        12716,
        3,
        10861,
        12600,
        50421,
        50438,
        12719,
        50384,
        12606
      ],
      "additionalDependencies": [
        12701,
        12702,
        12703,
        12684,
        12704,
        12705,
        12706,
        12707,
        12708,
        12709,
        12710,
        12711,
        12712,
        12728,
        12630,
        12722,
        12723,
        12724,
        12660,
        12720,
        12605,
        3,
        12726,
        12727,
        12721,
        10861,
        12725,
        12656,
        12657,
        12621,
        12623,
        12597,
        12729,
        6,
        7,
        9,
        10,
        11,
        12,
        12614,
        12600,
        12753,
        12639,
        12752,
        11013,
        12668,
        12609,
        12698,
        12758,
        12756,
        12757,
        12754,
        12755,
        12854,
        12618,
        12785,
        12735,
        12906,
        12742,
        12700,
        12655,
        12669,
        12869,
        12667,
        12616,
        12631,
        12816,
        12717,
        12642,
        11110,
        11149,
        12599,
        11115,
        12636,
        13331,
        13028,
        12791,
        12790,
        12633,
        12879,
        12637,
        12634,
        13335,
        13332,
        13333,
        13334,
        13020,
        12622,
        13337,
        13336,
        13354,
        13498,
        13502,
        13500,
        13499,
        13501,
        13497,
        12719
      ],
      "additionalStreamingDependencies": []
    },
    "SGDevelopment/Loc/spanish/Prefabs/UI/BattleResult": {
      "id": "8df5dafc",
      "size": 730069,
      "compSize": 652727,
      "path": "SGDevelopment/Loc/spanish/Prefabs/UI/BattleResult",
      "pathHash": -338467554,
      "hash": 2615026179,
      "flags": [],
      "dependencies": [
        12610,
        12614,
        12714,
        12630,
        12628,
        12631,
        50496,
        50532,
        12713,
        12629,
        12599,
        12716,
        3,
        10861,
        12600,
        12719,
        50549,
        12606
      ],
      "additionalDependencies": [
        12701,
        12702,
        12703,
        12684,
        12704,
        12705,
        12706,
        12707,
        12708,
        12709,
        12710,
        12711,
        12712,
        12728,
        12630,
        12722,
        12723,
        12724,
        12660,
        12720,
        12605,
        3,
        12726,
        12727,
        12721,
        10861,
        12725,
        12656,
        12657,
        12621,
        12623,
        12597,
        12729,
        6,
        7,
        9,
        10,
        11,
        12,
        12614,
        12600,
        12753,
        12639,
        12752,
        11013,
        12668,
        12609,
        12698,
        12758,
        12756,
        12757,
        12754,
        12755,
        12854,
        12618,
        12785,
        12735,
        12906,
        12742,
        12700,
        12655,
        12669,
        12869,
        12667,
        12616,
        12631,
        12816,
        12717,
        12642,
        11110,
        11149,
        12599,
        11115,
        12636,
        13331,
        13028,
        12791,
        12790,
        12633,
        12879,
        12637,
        12634,
        13335,
        13332,
        13333,
        13334,
        13020,
        12622,
        13337,
        13336,
        13354,
        13498,
        13502,
        13500,
        13499,
        13501,
        13497,
        12719
      ],
      "additionalStreamingDependencies": []
    },
    "Assets/SGDevelopment/Loc/french/UI/Gacha/sprite/gacha_topui.png": {
      "id": "acac6b3b",
      "size": 137153,
      "compSize": 113250,
      "path": "Assets/SGDevelopment/Loc/french/UI/Gacha/sprite/gacha_topui.png",
      "pathHash": -1389814893,
      "hash": 4241477351,
      "flags": [],
      "dependencies": [],
      "additionalDependencies": [],
      "additionalStreamingDependencies": []
    },
    "Assets/SGDevelopment/Loc/german/UI/Gacha/sprite/gacha_topui.png": {
      "id": "e61c825b",
      "size": 137920,
      "compSize": 113702,
      "path": "Assets/SGDevelopment/Loc/german/UI/Gacha/sprite/gacha_topui.png",
      "pathHash": 136443775,
      "hash": 1670414461,
      "flags": [],
      "dependencies": [],
      "additionalDependencies": [],
      "additionalStreamingDependencies": []
    },
    "Assets/SGDevelopment/Loc/spanish/UI/Gacha/sprite/gacha_topui.png": {
      "id": "7d9fc3b5",
      "size": 137009,
      "compSize": 112898,
      "path": "Assets/SGDevelopment/Loc/spanish/UI/Gacha/sprite/gacha_topui.png",
      "pathHash": -643768249,
      "hash": 1701618539,
      "flags": [],
      "dependencies": [],
      "additionalDependencies": [],
      "additionalStreamingDependencies": []
    },
    "Loc/english": {
      "id": "bd458828",
      "size": 3278593,
      "compSize": 3278593,
      "path": "Loc/english",
      "pathHash": 687071873,
      "hash": 831542948,
      "flags": [
        "IsCombined",
        "IsFolder"
      ],
      "dependencies": [],
      "additionalDependencies": [],
      "additionalStreamingDependencies": []
    },
    "Loc/french": {
      "id": "8632fb65",
      "size": 172084038,
      "compSize": 172084038,
      "path": "Loc/french",
      "pathHash": 1716996969,
      "hash": 2683180772,
      "flags": [
        "IsCombined",
        "IsFolder"
      ],
      "dependencies": [],
      "additionalDependencies": [],
      "additionalStreamingDependencies": []
    },
    "Loc/german": {
      "id": "e7e773ad",
      "size": 170994896,
      "compSize": 170994896,
      "path": "Loc/german",
      "pathHash": 1734006613,
      "hash": 2911252262,
      "flags": [
        "IsCombined",
        "IsFolder"
      ],
      "dependencies": [],
      "additionalDependencies": [],
      "additionalStreamingDependencies": []
    },
    "Loc/spanish": {
      "id": "e61b6a17",
      "size": 171778218,
      "compSize": 171778218,
      "path": "Loc/spanish",
      "pathHash": 278998277,
      "hash": 1901289849,
      "flags": [
        "IsCombined",
        "IsFolder"
      ],
      "dependencies": [],
      "additionalDependencies": [],
      "additionalStreamingDependencies": []
    }
  },
  "gameVersion": "76dc7a5789756005e16239ccdfa76632fada5a8a_a",
  "version": "e7435ad026994557b105696ca5f9a41c2c63d578_1_gumi",
  "host": "https://prod-dlc-alcww-gumi-sg.akamaized.net/"
}