{
  "revision": 10150457,
  "length": 42588,
  "assets": {
    "Data/appeal/AppealEvent": {
      "id": "b0bc79d4",
      "size": 156,
      "compSize": 167,
      "path": "Data/appeal/AppealEvent",
      "pathHash": -1070686192,
      "hash": 447739168,
      "flags": [
        "Compressed",
        "RawData",
        "Required"
      ],
      "dependencies": [],
      "additionalDependencies": [],
      "additionalStreamingDependencies": []
    },
    "Data/appeal/AppealGacha": {
      "id": "33059636",
      "size": 171,
      "compSize": 182,
      "path": "Data/appeal/AppealGacha",
      "pathHash": -1069466888,
      "hash": 1707557606,
      "flags": [
        "Compressed",
        "RawData",
        "Required"
      ],
      "dependencies": [],
      "additionalDependencies": [],
      "additionalStreamingDependencies": []
    },
    "Data/appeal/AppealLimitedShop": {
      "id": "319b7cdd",
      "size": 341,
      "compSize": 352,
      "path": "Data/appeal/AppealLimitedShop",
      "pathHash": -1872755546,
      "hash": 3178433959,
      "flags": [
        "Compressed",
        "RawData",
        "Required"
      ],
      "dependencies": [],
      "additionalDependencies": [],
      "additionalStreamingDependencies": []
    },
    "Data/CHDB": {
      "id": "b4ddd24f",
      "size": 25484,
      "compSize": 25493,
      "path": "Data/CHDB",
      "pathHash": 1594771144,
      "hash": 3037767828,
      "flags": [
        "Compressed",
        "RawData",
        "Required"
      ],
      "dependencies": [],
      "additionalDependencies": [],
      "additionalStreamingDependencies": []
    },
    "Data/MasterParam": {
      "id": "49744fd6",
      "size": 1392250,
      "compSize": 1380785,
      "path": "Data/MasterParam",
      "pathHash": -1006947226,
      "hash": 2226324268,
      "flags": [
        "Compressed",
        "RawData",
        "Required"
      ],
      "dependencies": [],
      "additionalDependencies": [],
      "additionalStreamingDependencies": []
    },
    "Data/QuestDropParam": {
      "id": "4399c9c6",
      "size": 96153,
      "compSize": 96083,
      "path": "Data/QuestDropParam",
      "pathHash": 254966049,
      "hash": 2927396526,
      "flags": [
        "Compressed",
        "RawData",
        "Required"
      ],
      "dependencies": [],
      "additionalDependencies": [],
      "additionalStreamingDependencies": []
    },
    "Data/QuestParam": {
      "id": "b9cc206f",
      "size": 250382,
      "compSize": 248148,
      "path": "Data/QuestParam",
      "pathHash": 1598764112,
      "hash": 1369023176,
      "flags": [
        "Compressed",
        "RawData",
        "Required"
      ],
      "dependencies": [],
      "additionalDependencies": [],
      "additionalStreamingDependencies": []
    },
    "SkillSeq/SKILLSEQ": {
      "id": "48e322b8",
      "size": 22389,
      "compSize": 22056,
      "path": "SkillSeq/SKILLSEQ",
      "pathHash": 722010351,
      "hash": 3723350771,
      "flags": [
        "Compressed",
        "RawData",
        "Required"
      ],
      "dependencies": [],
      "additionalDependencies": [],
      "additionalStreamingDependencies": []
    },
    "StreamingAssets/SE.acb": {
      "id": "317956a4",
      "size": 12334528,
      "compSize": 11626318,
      "path": "StreamingAssets/SE.acb",
      "pathHash": -626923058,
      "hash": 3349732735,
      "flags": [
        "RawData",
        "Required",
        "Tutorial",
        "StreamingAsset"
      ],
      "dependencies": [],
      "additionalDependencies": [],
      "additionalStreamingDependencies": []
    },
    "CH/BODY/F_xmas_rofi_body_00": {
      "id": "6be228c8",
      "size": 91291,
      "compSize": 72896,
      "path": "CH/BODY/F_xmas_rofi_body_00",
      "pathHash": 194795098,
      "hash": 1261073697,
      "flags": [
        "Multiplay"
      ],
      "dependencies": [
        37876,
        3611
      ],
      "additionalDependencies": [],
      "additionalStreamingDependencies": []
    },
    "CH/BODY/MO_Jabberwock_body_00": {
      "id": "ee531d3e",
      "size": 111975,
      "compSize": 91731,
      "path": "CH/BODY/MO_Jabberwock_body_00",
      "pathHash": -206384260,
      "hash": 1857912486,
      "flags": [
        "Multiplay"
      ],
      "dependencies": [
        37876,
        3611
      ],
      "additionalDependencies": [],
      "additionalStreamingDependencies": []
    },
    "CH/BODY/MO_snowman_00": {
      "id": "1a27dba3",
      "size": 50633,
      "compSize": 43034,
      "path": "CH/BODY/MO_snowman_00",
      "pathHash": -1756588734,
      "hash": 1951841464,
      "flags": [
        "Multiplay"
      ],
      "dependencies": [
        37876,
        3611
      ],
      "additionalDependencies": [],
      "additionalStreamingDependencies": []
    },
    "CH/HAIR/F_birg_hair_long_00": {
      "id": "4f675229",
      "size": 51558,
      "compSize": 45645,
      "path": "CH/HAIR/F_birg_hair_long_00",
      "pathHash": -855746835,
      "hash": 1798485479,
      "flags": [
        "Multiplay"
      ],
      "dependencies": [],
      "additionalDependencies": [],
      "additionalStreamingDependencies": []
    },
    "CH/HAIR/F_klim_hair_short_00": {
      "id": "bb6da8f7",
      "size": 53576,
      "compSize": 45809,
      "path": "CH/HAIR/F_klim_hair_short_00",
      "pathHash": 1109751650,
      "hash": 2645086217,
      "flags": [
        "Multiplay"
      ],
      "dependencies": [],
      "additionalDependencies": [],
      "additionalStreamingDependencies": []
    },
    "CH/HAIR/F_yuna_hair_long_00": {
      "id": "e1dded7c",
      "size": 61509,
      "compSize": 53643,
      "path": "CH/HAIR/F_yuna_hair_long_00",
      "pathHash": -327725894,
      "hash": 1863028462,
      "flags": [
        "Multiplay"
      ],
      "dependencies": [],
      "additionalDependencies": [],
      "additionalStreamingDependencies": []
    },
    "CH/HEAD/F_birg_head_00": {
      "id": "5cad6bd4",
      "size": 30868,
      "compSize": 26949,
      "path": "CH/HEAD/F_birg_head_00",
      "pathHash": 1953016570,
      "hash": 2153695482,
      "flags": [
        "Multiplay"
      ],
      "dependencies": [],
      "additionalDependencies": [],
      "additionalStreamingDependencies": []
    },
    "CH/HEAD/F_klim_head_00": {
      "id": "c2fd3f48",
      "size": 33893,
      "compSize": 29503,
      "path": "CH/HEAD/F_klim_head_00",
      "pathHash": 1532703619,
      "hash": 2858016873,
      "flags": [
        "Multiplay"
      ],
      "dependencies": [],
      "additionalDependencies": [],
      "additionalStreamingDependencies": []
    },
    "CH/HEAD/F_yuna_head_00": {
      "id": "f1e14150",
      "size": 34987,
      "compSize": 30667,
      "path": "CH/HEAD/F_yuna_head_00",
      "pathHash": -715749107,
      "hash": 4018267310,
      "flags": [
        "Multiplay"
      ],
      "dependencies": [],
      "additionalDependencies": [],
      "additionalStreamingDependencies": []
    },
    "QuestChapters/quest_ev_babel05_2": {
      "id": "f55ca763",
      "size": 6456,
      "compSize": 5339,
      "path": "QuestChapters/quest_ev_babel05_2",
      "pathHash": 138545752,
      "hash": 940248243,
      "flags": [
        "Tutorial"
      ],
      "dependencies": [
        10968,
        13215,
        11130
      ],
      "additionalDependencies": [],
      "additionalStreamingDependencies": []
    },
    "QuestChapters/quest_ev_vision_clear_cp_01": {
      "id": "b9e9b715",
      "size": 6454,
      "compSize": 5360,
      "path": "QuestChapters/quest_ev_vision_clear_cp_01",
      "pathHash": -1496935788,
      "hash": 348540574,
      "flags": [
        "Tutorial"
      ],
      "dependencies": [
        11317,
        10968,
        13215
      ],
      "additionalDependencies": [],
      "additionalStreamingDependencies": []
    },
    "UI/EventQuestLibrary": {
      "id": "473f8b4d",
      "size": 46118,
      "compSize": 37867,
      "path": "UI/EventQuestLibrary",
      "pathHash": -419970472,
      "hash": 611619531,
      "flags": [
        "Tutorial"
      ],
      "dependencies": [
        13059,
        11408,
        1,
        13085,
        13073,
        10968,
        13321,
        13215,
        13169,
        13064,
        10966,
        13055,
        13112,
        13084,
        13724
      ],
      "additionalDependencies": [
        13320,
        13059,
        1,
        13073,
        10966,
        13055,
        10969
      ],
      "additionalStreamingDependencies": []
    },
    "UI/HomeMultiPlay_Ready": {
      "id": "5c13c0f8",
      "size": 65579,
      "compSize": 54168,
      "path": "UI/HomeMultiPlay_Ready",
      "pathHash": -1988328489,
      "hash": 130692560,
      "flags": [
        "Tutorial"
      ],
      "dependencies": [
        13059,
        13111,
        1,
        13506,
        13300,
        13085,
        13108,
        13073,
        10966,
        13055,
        13132,
        13112,
        13152,
        13124,
        13150,
        13084,
        13122,
        13096,
        13158,
        13056,
        13315
      ],
      "additionalDependencies": [
        13495,
        13499,
        13502,
        13513,
        13514,
        13059,
        13111,
        1,
        13085,
        11517,
        13150,
        13086,
        13058,
        13073,
        13056,
        13091,
        13467,
        10966,
        13055,
        13265,
        13240,
        13478,
        13210,
        13300,
        13096,
        13097,
        13093,
        13506,
        13083,
        13067,
        13072,
        13194,
        13084
      ],
      "additionalStreamingDependencies": [
        48,
        47,
        971,
        970
      ]
    },
    "Assets/UI/TownQuestList/Sprite/ui_TownQuestList_1.png": {
      "id": "ddc99b1e",
      "size": 384533,
      "compSize": 353113,
      "path": "Assets/UI/TownQuestList/Sprite/ui_TownQuestList_1.png",
      "pathHash": 1556412010,
      "hash": 2475457046,
      "flags": [
        "Required",
        "Tutorial"
      ],
      "dependencies": [],
      "additionalDependencies": [],
      "additionalStreamingDependencies": []
    },
    "Loc/japanese/external_artifact": {
      "id": "27176255",
      "size": 50320,
      "compSize": 50346,
      "path": "Loc/japanese/external_artifact",
      "pathHash": 665810231,
      "hash": 1108091951,
      "flags": [
        "Compressed",
        "RawData",
        "Required"
      ],
      "dependencies": [],
      "additionalDependencies": [],
      "additionalStreamingDependencies": []
    },
    "Loc/japanese/external_conceptcard": {
      "id": "b09c02f6",
      "size": 24822,
      "compSize": 24475,
      "path": "Loc/japanese/external_conceptcard",
      "pathHash": -2065654797,
      "hash": 3719838736,
      "flags": [
        "Compressed",
        "RawData",
        "Required"
      ],
      "dependencies": [],
      "additionalDependencies": [],
      "additionalStreamingDependencies": []
    },
    "Loc/japanese/external_item": {
      "id": "7455e2c8",
      "size": 230734,
      "compSize": 230730,
      "path": "Loc/japanese/external_item",
      "pathHash": 941647096,
      "hash": 3960966060,
      "flags": [
        "Compressed",
        "RawData",
        "Required"
      ],
      "dependencies": [],
      "additionalDependencies": [],
      "additionalStreamingDependencies": []
    },
    "Loc/japanese/external_skill": {
      "id": "299ff824",
      "size": 4798,
      "compSize": 4809,
      "path": "Loc/japanese/external_skill",
      "pathHash": -864740084,
      "hash": 328806761,
      "flags": [
        "Compressed",
        "RawData",
        "Required"
      ],
      "dependencies": [],
      "additionalDependencies": [],
      "additionalStreamingDependencies": []
    },
    "Loc/japanese/help": {
      "id": "5688cb48",
      "size": 13414,
      "compSize": 13425,
      "path": "Loc/japanese/help",
      "pathHash": 2088582704,
      "hash": 2557849967,
      "flags": [
        "Compressed",
        "RawData",
        "Required"
      ],
      "dependencies": [],
      "additionalDependencies": [],
      "additionalStreamingDependencies": []
    },
    "Loc/japanese/quest_info": {
      "id": "b0cf2564",
      "size": 13739,
      "compSize": 13750,
      "path": "Loc/japanese/quest_info",
      "pathHash": -2046393958,
      "hash": 2430407448,
      "flags": [
        "Compressed",
        "RawData",
        "Required"
      ],
      "dependencies": [],
      "additionalDependencies": [],
      "additionalStreamingDependencies": []
    },
    "Loc/japanese/sys": {
      "id": "e523cc2b",
      "size": 55048,
      "compSize": 55074,
      "path": "Loc/japanese/sys",
      "pathHash": 67384830,
      "hash": 3836432410,
      "flags": [
        "Compressed",
        "RawData",
        "Required"
      ],
      "dependencies": [],
      "additionalDependencies": [],
      "additionalStreamingDependencies": []
    },
    "CHM/F_kem_skillatk06": {
      "id": "10b35aaa",
      "size": 49690,
      "compSize": 35956,
      "path": "CHM/F_kem_skillatk06",
      "pathHash": -713406439,
      "hash": 2933818216,
      "flags": [],
      "dependencies": [
        28197
      ],
      "additionalDependencies": [],
      "additionalStreamingDependencies": []
    },
    "CHM/F_kem_skillatk104": {
      "id": "5c39e3b7",
      "size": 49804,
      "compSize": 36034,
      "path": "CHM/F_kem_skillatk104",
      "pathHash": -640762302,
      "hash": 2353336407,
      "flags": [],
      "dependencies": [
        28197
      ],
      "additionalDependencies": [],
      "additionalStreamingDependencies": []
    },
    "CHM/F_mou_skillatk101": {
      "id": "33f4f4c4",
      "size": 49697,
      "compSize": 35976,
      "path": "CHM/F_mou_skillatk101",
      "pathHash": -733501697,
      "hash": 517074798,
      "flags": [],
      "dependencies": [
        28197
      ],
      "additionalDependencies": [],
      "additionalStreamingDependencies": []
    },
    "CHM/F_rofi_gen_unit_info_act0": {
      "id": "a062e524",
      "size": 96616,
      "compSize": 72890,
      "path": "CHM/F_rofi_gen_unit_info_act0",
      "pathHash": -184734270,
      "hash": 2000424712,
      "flags": [],
      "dependencies": [
        28379,
        28597,
        28601,
        28189,
        28377,
        13166,
        28187,
        28186,
        28191,
        13076,
        28190,
        13618,
        28188
      ],
      "additionalDependencies": [],
      "additionalStreamingDependencies": []
    },
    "CHM/F_rofi_gen_unit_info_idle0": {
      "id": "9a536318",
      "size": 15966,
      "compSize": 13297,
      "path": "CHM/F_rofi_gen_unit_info_idle0",
      "pathHash": -1424383112,
      "hash": 498168421,
      "flags": [],
      "dependencies": [],
      "additionalDependencies": [],
      "additionalStreamingDependencies": []
    },
    "CHM/F_vision_c_wiz_skill100": {
      "id": "833573d0",
      "size": 82857,
      "compSize": 62718,
      "path": "CHM/F_vision_c_wiz_skill100",
      "pathHash": 1144473674,
      "hash": 4238572955,
      "flags": [],
      "dependencies": [
        42494,
        28768,
        28217,
        13373,
        13369,
        28769,
        13166,
        13076,
        28220,
        28759,
        28562,
        28426,
        28625,
        13444,
        13173,
        28219,
        13618,
        38109
      ],
      "additionalDependencies": [],
      "additionalStreamingDependencies": []
    },
    "CHM/M_kem_skillatk06": {
      "id": "ff65c029",
      "size": 49705,
      "compSize": 35973,
      "path": "CHM/M_kem_skillatk06",
      "pathHash": 7821618,
      "hash": 1996199463,
      "flags": [],
      "dependencies": [
        28197
      ],
      "additionalDependencies": [],
      "additionalStreamingDependencies": []
    },
    "CHM/M_kem_skillatk104": {
      "id": "1b63131e",
      "size": 48365,
      "compSize": 34735,
      "path": "CHM/M_kem_skillatk104",
      "pathHash": 242470985,
      "hash": 2572215580,
      "flags": [],
      "dependencies": [
        28197
      ],
      "additionalDependencies": [],
      "additionalStreamingDependencies": []
    },
    "CHM/M_mich_doc_unit_info_act0": {
      "id": "15726ff5",
      "size": 51432,
      "compSize": 42945,
      "path": "CHM/M_mich_doc_unit_info_act0",
      "pathHash": 309375232,
      "hash": 473091259,
      "flags": [],
      "dependencies": [
        28190
      ],
      "additionalDependencies": [],
      "additionalStreamingDependencies": []
    },
    "CHM/M_mich_doc_unit_info_idle0": {
      "id": "8fed578e",
      "size": 21532,
      "compSize": 18326,
      "path": "CHM/M_mich_doc_unit_info_idle0",
      "pathHash": 1008109562,
      "hash": 4142888979,
      "flags": [],
      "dependencies": [],
      "additionalDependencies": [],
      "additionalStreamingDependencies": []
    },
    "CHM/M_mou_skillatk101": {
      "id": "7e0beb2d",
      "size": 48117,
      "compSize": 34629,
      "path": "CHM/M_mou_skillatk101",
      "pathHash": 149731590,
      "hash": 883021351,
      "flags": [],
      "dependencies": [
        28197
      ],
      "additionalDependencies": [],
      "additionalStreamingDependencies": []
    },
    "Gachas/GachaTabSprites": {
      "id": "75a01316",
      "size": 768011,
      "compSize": 707282,
      "path": "Gachas/GachaTabSprites",
      "pathHash": -1508958915,
      "hash": 4159523019,
      "flags": [
        "Tutorial"
      ],
      "dependencies": [
        13446
      ],
      "additionalDependencies": [],
      "additionalStreamingDependencies": []
    },
    "Gachas/BGTables": {
      "id": "49da8953",
      "size": 5309224,
      "compSize": 4975938,
      "path": "Gachas/BGTables",
      "pathHash": 1186244616,
      "hash": 151049041,
      "flags": [
        "Tutorial"
      ],
      "dependencies": [],
      "additionalDependencies": [],
      "additionalStreamingDependencies": []
    },
    "Assets/Effects/Texture/eff_tex_circle02.tga": {
      "id": "2796e22e",
      "size": 4749,
      "compSize": 4062,
      "path": "Assets/Effects/Texture/eff_tex_circle02.tga",
      "pathHash": -1524877583,
      "hash": 2968430948,
      "flags": [
        "Required",
        "Tutorial",
        "Multiplay"
      ],
      "dependencies": [],
      "additionalDependencies": [],
      "additionalStreamingDependencies": []
    },
    "Assets/Effects/Texture/eff_tex_circle10.tga": {
      "id": "ecedc169",
      "size": 6441,
      "compSize": 5407,
      "path": "Assets/Effects/Texture/eff_tex_circle10.tga",
      "pathHash": -1498095474,
      "hash": 2244499936,
      "flags": [
        "Required",
        "Multiplay"
      ],
      "dependencies": [],
      "additionalDependencies": [],
      "additionalStreamingDependencies": []
    },
    "Assets/Effects/Texture/eff_tex_fire06.tga": {
      "id": "942cead3",
      "size": 12852,
      "compSize": 11343,
      "path": "Assets/Effects/Texture/eff_tex_fire06.tga",
      "pathHash": -349336165,
      "hash": 3500231115,
      "flags": [
        "Multiplay"
      ],
      "dependencies": [],
      "additionalDependencies": [],
      "additionalStreamingDependencies": []
    },
    "Assets/Effects/Texture/eff_tex_provocation00.tga": {
      "id": "fea33630",
      "size": 5465,
      "compSize": 4958,
      "path": "Assets/Effects/Texture/eff_tex_provocation00.tga",
      "pathHash": 647912217,
      "hash": 3107795137,
      "flags": [],
      "dependencies": [],
      "additionalDependencies": [],
      "additionalStreamingDependencies": []
    },
    "SkillEff/eff_gargoyle01_skill103": {
      "id": "cb06eeac",
      "size": 32825,
      "compSize": 19871,
      "path": "SkillEff/eff_gargoyle01_skill103",
      "pathHash": -1543607078,
      "hash": 1147407541,
      "flags": [
        "Multiplay"
      ],
      "dependencies": [
        28584,
        13166,
        28270,
        28625,
        28370
      ],
      "additionalDependencies": [],
      "additionalStreamingDependencies": []
    },
    "SkillEff/eff_gargoyle01_skill105": {
      "id": "ba0efa96",
      "size": 32653,
      "compSize": 19758,
      "path": "SkillEff/eff_gargoyle01_skill105",
      "pathHash": -1543607076,
      "hash": 3630507268,
      "flags": [
        "Multiplay"
      ],
      "dependencies": [
        28584,
        13166,
        28270,
        28625,
        28370
      ],
      "additionalDependencies": [],
      "additionalStreamingDependencies": []
    },
    "Events/EQ_CHRISTMAS2016_01_a_2d": {
      "id": "e591818b",
      "size": 20994,
      "compSize": 18336,
      "path": "Events/EQ_CHRISTMAS2016_01_a_2d",
      "pathHash": -1595379625,
      "hash": 865899878,
      "flags": [],
      "dependencies": [
        34333,
        34332,
        34325,
        34321,
        34324,
        34334,
        13580,
        34335,
        34329,
        34326,
        34327,
        34319,
        32443,
        34322,
        34318,
        34330,
        34323,
        28596,
        34328,
        34320,
        34331
      ],
      "additionalDependencies": [
        33229,
        32441,
        32445,
        32446,
        18206,
        13307,
        28601,
        13840,
        13841,
        13202,
        1,
        13306
      ],
      "additionalStreamingDependencies": [
        38,
        99,
        100,
        912,
        913,
        920,
        921,
        961,
        960
      ]
    },
    "Assets/Event2ds/stand/UN_ROSA_XMAS/normal.png": {
      "id": "77c75ecc",
      "size": 104301,
      "compSize": 96206,
      "path": "Assets/Event2ds/stand/UN_ROSA_XMAS/normal.png",
      "pathHash": -1211713305,
      "hash": 3067428396,
      "flags": [],
      "dependencies": [],
      "additionalDependencies": [],
      "additionalStreamingDependencies": []
    },
    "Events/EQ_CHRISTMAS2016_02_a_2d": {
      "id": "fec7a7d9",
      "size": 21402,
      "compSize": 18685,
      "path": "Events/EQ_CHRISTMAS2016_02_a_2d",
      "pathHash": -1566750474,
      "hash": 2578545204,
      "flags": [],
      "dependencies": [
        34333,
        34332,
        34325,
        34321,
        34324,
        34334,
        13580,
        34335,
        34329,
        34326,
        34327,
        33413,
        34319,
        32443,
        34322,
        34330,
        34323,
        28596,
        34328,
        34320,
        34331
      ],
      "additionalDependencies": [
        33229,
        32441,
        32445,
        32446,
        18207,
        13307,
        28601,
        13840,
        13841,
        13202,
        1,
        13306
      ],
      "additionalStreamingDependencies": [
        38,
        99,
        100,
        912,
        913,
        920,
        921,
        961,
        960
      ]
    },
    "Events/EQ_CHRISTMAS2016_03_a_2d": {
      "id": "6f4ac741",
      "size": 22232,
      "compSize": 19447,
      "path": "Events/EQ_CHRISTMAS2016_03_a_2d",
      "pathHash": -1538121323,
      "hash": 2075631969,
      "flags": [],
      "dependencies": [
        34333,
        34332,
        34325,
        34321,
        34324,
        34334,
        13580,
        34335,
        34338,
        34329,
        34326,
        34327,
        33413,
        34319,
        32443,
        34322,
        34330,
        34323,
        28596,
        34328,
        34320,
        34331
      ],
      "additionalDependencies": [
        33229,
        32441,
        32445,
        32446,
        18208,
        13307,
        28601,
        13840,
        13841,
        13202,
        1,
        13306
      ],
      "additionalStreamingDependencies": [
        38,
        99,
        100,
        912,
        913,
        920,
        921,
        961,
        960
      ]
    },
    "Events/EQ_CHRISTMAS2016_04_a_2d": {
      "id": "fd328544",
      "size": 24883,
      "compSize": 21779,
      "path": "Events/EQ_CHRISTMAS2016_04_a_2d",
      "pathHash": -1509492172,
      "hash": 3661365007,
      "flags": [],
      "dependencies": [
        34341,
        34321,
        34324,
        34345,
        34346,
        28272,
        32591,
        34319,
        32443,
        34322,
        34347,
        34343,
        34344,
        34323,
        13444,
        34320,
        32784,
        34340,
        34342
      ],
      "additionalDependencies": [
        33229,
        32782,
        32441,
        32445,
        32446,
        18209,
        13307,
        28601,
        13840,
        13841,
        28272,
        28557,
        13076,
        28625,
        32592,
        13202,
        1,
        13306
      ],
      "additionalStreamingDependencies": [
        38,
        64,
        63,
        99,
        100,
        769,
        768,
        912,
        913
      ]
    },
    "Events/EQ_CHRISTMAS2016_05_a_2d": {
      "id": "e2b30831",
      "size": 31811,
      "compSize": 27854,
      "path": "Events/EQ_CHRISTMAS2016_05_a_2d",
      "pathHash": -1480863021,
      "hash": 2451259660,
      "flags": [],
      "dependencies": [
        34333,
        34332,
        32543,
        34325,
        34341,
        34321,
        34324,
        34334,
        34345,
        34346,
        13580,
        34335,
        28272,
        34329,
        34326,
        34327,
        32591,
        34319,
        32443,
        34322,
        34330,
        34347,
        34343,
        34344,
        34323,
        13444,
        28596,
        34328,
        34320,
        32784,
        34340,
        34342,
        34331
      ],
      "additionalDependencies": [
        33229,
        32441,
        32445,
        32446,
        18210,
        13307,
        28601,
        13840,
        13841,
        13202,
        1,
        13306
      ],
      "additionalStreamingDependencies": [
        38,
        64,
        63,
        99,
        100,
        769,
        768,
        912,
        913,
        920,
        921,
        961,
        960
      ]
    },
    "Events/EQ_CHRISTMAS2016_05_b_2d": {
      "id": "c7a3d66f",
      "size": 35682,
      "compSize": 30629,
      "path": "Events/EQ_CHRISTMAS2016_05_b_2d",
      "pathHash": -1480833230,
      "hash": 2258900769,
      "flags": [],
      "dependencies": [
        34333,
        34332,
        32543,
        34325,
        34341,
        34321,
        34324,
        34334,
        34345,
        34346,
        13580,
        34335,
        34329,
        34326,
        34327,
        33413,
        34319,
        32443,
        34322,
        34330,
        34347,
        34343,
        34344,
        34323,
        28596,
        34328,
        34320,
        32784,
        34340,
        34342,
        34331
      ],
      "additionalDependencies": [
        32568,
        33229,
        33338,
        32441,
        33388,
        32445,
        32446,
        18211,
        13307,
        28347,
        28545,
        28757,
        28601,
        13840,
        13841,
        28272,
        13076,
        28625,
        32592,
        13202,
        1,
        13306
      ],
      "additionalStreamingDependencies": [
        38,
        49,
        50,
        79,
        80,
        99,
        100,
        769,
        768,
        912,
        913,
        920,
        921,
        961,
        960
      ]
    },
    "Events/EQ_CHRISTMAS2017_01_a_2d": {
      "id": "537600c2",
      "size": 19175,
      "compSize": 17056,
      "path": "Events/EQ_CHRISTMAS2017_01_a_2d",
      "pathHash": 892133208,
      "hash": 2450258711,
      "flags": [],
      "dependencies": [
        34362,
        34364,
        34361,
        34360,
        34366,
        34338,
        34359,
        34363,
        34355,
        34354,
        34367,
        34356,
        34352,
        34351,
        32863,
        34365,
        34358,
        32443,
        34353,
        34357
      ],
      "additionalDependencies": [
        33229,
        32441,
        32445,
        32446,
        18212,
        13307,
        28601,
        13840,
        13841,
        13202,
        1,
        13306
      ],
      "additionalStreamingDependencies": [
        38,
        103,
        104,
        399,
        398,
        565,
        564,
        987,
        986,
        1019,
        1018
      ]
    },
    "Assets/Event2ds/stand/UN_HAZEL_XMAS/normal.png": {
      "id": "644f811f",
      "size": 97985,
      "compSize": 92385,
      "path": "Assets/Event2ds/stand/UN_HAZEL_XMAS/normal.png",
      "pathHash": -662763902,
      "hash": 3929054196,
      "flags": [],
      "dependencies": [],
      "additionalDependencies": [],
      "additionalStreamingDependencies": []
    },
    "Events/EQ_CHRISTMAS2017_02_a_2d": {
      "id": "1bcfc142",
      "size": 37635,
      "compSize": 31904,
      "path": "Events/EQ_CHRISTMAS2017_02_a_2d",
      "pathHash": 920762359,
      "hash": 670581376,
      "flags": [],
      "dependencies": [
        34362,
        34333,
        34371,
        34364,
        34332,
        34361,
        32718,
        34325,
        34321,
        34324,
        34334,
        34360,
        34366,
        34370,
        13580,
        34335,
        34338,
        34359,
        34363,
        34355,
        34354,
        34367,
        34329,
        34326,
        34356,
        34372,
        34352,
        34327,
        34351,
        34365,
        34358,
        34319,
        32443,
        32856,
        34322,
        34330,
        34323,
        34353,
        28596,
        34328,
        34369,
        34320,
        34357,
        34331
      ],
      "additionalDependencies": [
        33229,
        32441,
        32445,
        32446,
        18213,
        13307,
        28601,
        13840,
        13841,
        13202,
        1,
        13306
      ],
      "additionalStreamingDependencies": [
        38,
        103,
        104,
        399,
        398,
        658,
        659,
        912,
        913,
        920,
        921,
        961,
        960
      ]
    },
    "Events/EQ_CHRISTMAS2017_03_a_2d": {
      "id": "0057ff85",
      "size": 39878,
      "compSize": 33456,
      "path": "Events/EQ_CHRISTMAS2017_03_a_2d",
      "pathHash": 949391510,
      "hash": 3928932342,
      "flags": [],
      "dependencies": [
        34362,
        34333,
        34371,
        34364,
        34332,
        34361,
        34325,
        34321,
        34324,
        34334,
        34360,
        34366,
        34370,
        13580,
        34335,
        34359,
        34363,
        34355,
        34354,
        34367,
        34329,
        34326,
        34356,
        34372,
        34352,
        34327,
        34351,
        34365,
        34358,
        34319,
        32443,
        32856,
        34322,
        34330,
        34323,
        34353,
        28596,
        34328,
        34369,
        34320,
        34357,
        34331
      ],
      "additionalDependencies": [
        33229,
        32441,
        32445,
        32446,
        18214,
        13307,
        28601,
        13840,
        13841,
        13202,
        1,
        13306
      ],
      "additionalStreamingDependencies": [
        38,
        103,
        104,
        399,
        398,
        565,
        564,
        912,
        913,
        920,
        921,
        961,
        960,
        1101,
        1100
      ]
    },
    "Events/EQ_CHRISTMAS2017_04_a_2d": {
      "id": "507451cc",
      "size": 49044,
      "compSize": 39645,
      "path": "Events/EQ_CHRISTMAS2017_04_a_2d",
      "pathHash": 978020661,
      "hash": 3693583810,
      "flags": [],
      "dependencies": [
        34362,
        34333,
        34371,
        34364,
        34332,
        34361,
        34325,
        34341,
        34321,
        34324,
        34334,
        34360,
        34366,
        34345,
        34370,
        34346,
        13580,
        34335,
        34359,
        34363,
        34355,
        34354,
        34367,
        34329,
        34326,
        34356,
        34372,
        34352,
        34327,
        34351,
        34365,
        34358,
        34319,
        32443,
        32856,
        34322,
        34330,
        34347,
        34343,
        34344,
        34323,
        34353,
        28596,
        34328,
        34369,
        34320,
        34357,
        34340,
        34342,
        34331
      ],
      "additionalDependencies": [
        33229,
        32441,
        32445,
        32446,
        18215,
        13307,
        28601,
        13840,
        13841,
        13202,
        1,
        13306
      ],
      "additionalStreamingDependencies": [
        38,
        399,
        398,
        565,
        564,
        658,
        659,
        912,
        913,
        920,
        921,
        961,
        960,
        1101,
        1100
      ]
    },
    "Events/EQ_CHRISTMAS2017_05_a_2d": {
      "id": "e6c6253d",
      "size": 48313,
      "compSize": 39679,
      "path": "Events/EQ_CHRISTMAS2017_05_a_2d",
      "pathHash": 1006649812,
      "hash": 4038891484,
      "flags": [],
      "dependencies": [
        34362,
        34333,
        34371,
        34364,
        34332,
        34361,
        34325,
        34341,
        34321,
        34324,
        34334,
        34360,
        34366,
        34345,
        34370,
        34346,
        13580,
        34335,
        34359,
        34363,
        34355,
        34354,
        34367,
        34329,
        34326,
        34356,
        34372,
        34352,
        34327,
        34351,
        34365,
        34358,
        34319,
        32443,
        32856,
        34322,
        34330,
        34347,
        34343,
        34344,
        34323,
        34353,
        28596,
        34328,
        34369,
        34320,
        34357,
        34340,
        34342,
        34331
      ],
      "additionalDependencies": [
        33229,
        32441,
        32445,
        32446,
        18216,
        13307,
        28601,
        13840,
        13841,
        13202,
        1,
        13306
      ],
      "additionalStreamingDependencies": [
        38,
        103,
        104,
        192,
        191,
        399,
        398,
        565,
        564,
        658,
        659,
        912,
        913,
        920,
        921,
        961,
        960,
        1101,
        1100
      ]
    },
    "Events/EQ_CHRISTMAS2017_05_b_2d": {
      "id": "8513d998",
      "size": 52355,
      "compSize": 43131,
      "path": "Events/EQ_CHRISTMAS2017_05_b_2d",
      "pathHash": 1006679603,
      "hash": 668805734,
      "flags": [],
      "dependencies": [
        34362,
        34333,
        34371,
        34364,
        34332,
        34361,
        32718,
        34325,
        34341,
        34321,
        34324,
        34334,
        34360,
        34366,
        34345,
        34370,
        34346,
        13580,
        34335,
        34359,
        34363,
        34355,
        34354,
        34367,
        34329,
        34326,
        34356,
        34372,
        34352,
        34327,
        34351,
        34365,
        34358,
        34319,
        32443,
        32856,
        34322,
        34330,
        34347,
        34343,
        34344,
        34323,
        34353,
        28596,
        34328,
        34369,
        34320,
        34357,
        34340,
        34342,
        34331
      ],
      "additionalDependencies": [
        33229,
        32441,
        32445,
        32446,
        18217,
        13307,
        28601,
        13840,
        13841,
        13202,
        1,
        13306
      ],
      "additionalStreamingDependencies": [
        38,
        99,
        100,
        399,
        398,
        565,
        564,
        658,
        659,
        769,
        768,
        912,
        913,
        920,
        921,
        961,
        960,
        1101,
        1100
      ]
    },
    "Events/EQ_HAGAREN_02_b_2d": {
      "id": "c1713789",
      "size": 29398,
      "compSize": 25727,
      "path": "Events/EQ_HAGAREN_02_b_2d",
      "pathHash": -636126888,
      "hash": 3515438248,
      "flags": [],
      "dependencies": [
        34707,
        34616,
        34730,
        34734,
        34738,
        34721,
        34611,
        34718,
        34728,
        34723,
        34614,
        34711,
        34736,
        32919,
        34709,
        32503,
        34715,
        34712,
        28405,
        34708,
        34612,
        34720,
        29039,
        34737,
        34615,
        34724,
        34732,
        34710,
        34713,
        34719,
        34714,
        34610,
        34722,
        32443,
        34609,
        34613,
        34716,
        13444,
        34717,
        32920,
        34735,
        34731,
        34729,
        32918
      ],
      "additionalDependencies": [
        32441,
        32445,
        32446,
        18303,
        13307,
        13202,
        1,
        13306
      ],
      "additionalStreamingDependencies": [
        38,
        43,
        44,
        333,
        332,
        454,
        455,
        911,
        910,
        1028,
        1029
      ]
    },
    "Events/EQ_HAGAREN_04_a_2d": {
      "id": "24f4c3b6",
      "size": 21764,
      "compSize": 19254,
      "path": "Events/EQ_HAGAREN_04_a_2d",
      "pathHash": -578898377,
      "hash": 1049853069,
      "flags": [],
      "dependencies": [
        34707,
        34616,
        34738,
        34721,
        34611,
        34718,
        34723,
        34614,
        34711,
        32919,
        34709,
        34715,
        34712,
        34708,
        34612,
        34720,
        34737,
        34615,
        34724,
        34710,
        34713,
        34719,
        34714,
        34610,
        34722,
        32443,
        34609,
        34613,
        34716,
        34717,
        32920,
        32640,
        32918
      ],
      "additionalDependencies": [
        32441,
        32445,
        32446,
        18305,
        13307,
        13202,
        1,
        13306
      ],
      "additionalStreamingDependencies": [
        38,
        43,
        44,
        333,
        332,
        911,
        910,
        922,
        923,
        1028,
        1029,
        1070,
        1071
      ]
    },
    "Events/EQ_HAGAREN_05_a_2d": {
      "id": "c5da3389",
      "size": 20624,
      "compSize": 18296,
      "path": "Events/EQ_HAGAREN_05_a_2d",
      "pathHash": -550269226,
      "hash": 1264309418,
      "flags": [],
      "dependencies": [
        34707,
        34616,
        34738,
        34721,
        34611,
        34723,
        34614,
        34711,
        32919,
        34709,
        34708,
        34612,
        34720,
        34737,
        34615,
        34724,
        34710,
        34719,
        32863,
        34610,
        34722,
        32443,
        34609,
        34613,
        32920,
        32918
      ],
      "additionalDependencies": [
        32441,
        32445,
        32446,
        18306,
        13307,
        13202,
        1,
        13306
      ],
      "additionalStreamingDependencies": [
        38,
        73,
        74,
        333,
        332,
        451,
        452,
        1028,
        1029,
        1070,
        1071
      ]
    },
    "Events/EQ_HAGAREN_06_a_2d": {
      "id": "de76ba19",
      "size": 20813,
      "compSize": 18443,
      "path": "Events/EQ_HAGAREN_06_a_2d",
      "pathHash": -521640075,
      "hash": 1444579587,
      "flags": [],
      "dependencies": [
        34707,
        34616,
        34738,
        34721,
        34611,
        34744,
        34723,
        34614,
        34711,
        32919,
        34709,
        34708,
        34612,
        34720,
        34737,
        34615,
        34724,
        34710,
        34719,
        34610,
        34722,
        32443,
        34745,
        34609,
        34613,
        32920,
        33031,
        34743,
        32918
      ],
      "additionalDependencies": [
        32441,
        32445,
        32446,
        18307,
        13307,
        13202,
        1,
        13306
      ],
      "additionalStreamingDependencies": [
        38,
        51,
        52,
        76,
        75,
        333,
        332,
        388,
        389,
        451,
        452,
        1028,
        1029,
        1070,
        1071
      ]
    },
    "Events/EQ_HAGAREN_06_b_2d": {
      "id": "1fe45548",
      "size": 21355,
      "compSize": 18907,
      "path": "Events/EQ_HAGAREN_06_b_2d",
      "pathHash": -521610284,
      "hash": 3604980934,
      "flags": [],
      "dependencies": [
        34707,
        34616,
        34738,
        34721,
        34611,
        34744,
        34723,
        34614,
        34711,
        32919,
        34709,
        34708,
        34612,
        34720,
        34737,
        34615,
        34724,
        34710,
        34719,
        34610,
        34722,
        32443,
        34745,
        34609,
        34613,
        32920,
        32640,
        33031,
        34743,
        32918
      ],
      "additionalDependencies": [
        32441,
        32445,
        32446,
        18308,
        13307,
        13202,
        1,
        13306
      ],
      "additionalStreamingDependencies": [
        38,
        43,
        44,
        73,
        74,
        333,
        332,
        388,
        389,
        451,
        452,
        1028,
        1029,
        1070,
        1071
      ]
    },
    "Events/EQ_HAGAREN_08_a_2d": {
      "id": "45818a7e",
      "size": 48740,
      "compSize": 39914,
      "path": "Events/EQ_HAGAREN_08_a_2d",
      "pathHash": -464381773,
      "hash": 3827121865,
      "flags": [],
      "dependencies": [
        34749,
        34754,
        34707,
        34616,
        34764,
        34730,
        34734,
        34738,
        34721,
        34611,
        34744,
        34718,
        34728,
        34723,
        33365,
        34614,
        34711,
        34757,
        34755,
        34736,
        32919,
        34763,
        33054,
        34709,
        33363,
        34715,
        34712,
        34766,
        34708,
        34612,
        33055,
        34720,
        34737,
        34615,
        34756,
        34748,
        34724,
        34732,
        34710,
        34713,
        34719,
        34714,
        34750,
        33361,
        34753,
        34760,
        34610,
        34765,
        34722,
        33056,
        32443,
        34762,
        33356,
        34745,
        33051,
        33357,
        34609,
        34613,
        34716,
        34717,
        34758,
        32920,
        33364,
        34735,
        34731,
        34761,
        34743,
        33360,
        34129,
        34759,
        34729,
        32918,
        33362
      ],
      "additionalDependencies": [
        32441,
        32445,
        32446,
        18311,
        13307,
        13202,
        1,
        13306
      ],
      "additionalStreamingDependencies": [
        38,
        76,
        75,
        333,
        332,
        451,
        452,
        1028,
        1029
      ]
    },
    "Events/EQ_HAGAREN_08_b_2d": {
      "id": "f0e54859",
      "size": 50286,
      "compSize": 41060,
      "path": "Events/EQ_HAGAREN_08_b_2d",
      "pathHash": -464351982,
      "hash": 2773072203,
      "flags": [],
      "dependencies": [
        34707,
        34616,
        34764,
        34734,
        34738,
        34721,
        34611,
        34718,
        34723,
        13570,
        33365,
        34614,
        34711,
        34757,
        34736,
        32919,
        34763,
        33054,
        34709,
        33363,
        34715,
        34712,
        34766,
        34708,
        34612,
        33055,
        34720,
        34737,
        34615,
        34724,
        34710,
        34713,
        34719,
        34714,
        33361,
        34760,
        34610,
        34765,
        34722,
        33056,
        32443,
        34762,
        33356,
        33051,
        33357,
        34609,
        34613,
        34716,
        34717,
        13567,
        34758,
        32920,
        33364,
        34735,
        34761,
        33360,
        34129,
        34759,
        32918,
        33362
      ],
      "additionalDependencies": [
        32441,
        32445,
        32446,
        18312,
        13307,
        13202,
        1,
        13306
      ],
      "additionalStreamingDependencies": [
        38,
        51,
        52,
        73,
        74,
        76,
        75,
        193,
        194,
        333,
        332,
        451,
        452,
        683,
        682,
        753,
        752,
        911,
        910,
        922,
        923,
        1013,
        1012,
        1028,
        1029
      ]
    },
    "Events/EQ_HAGAREN_11_a_2d": {
      "id": "1d0e2042",
      "size": 19956,
      "compSize": 17647,
      "path": "Events/EQ_HAGAREN_11_a_2d",
      "pathHash": 222717851,
      "hash": 2926152976,
      "flags": [],
      "dependencies": [
        34707,
        34616,
        34764,
        34721,
        34611,
        34723,
        34614,
        34711,
        34763,
        33054,
        34709,
        34708,
        34612,
        33055,
        34720,
        34615,
        34724,
        34710,
        34719,
        34610,
        34722,
        33056,
        32443,
        32867,
        33051,
        34609,
        34613
      ],
      "additionalDependencies": [
        32441,
        32445,
        32446,
        18315,
        13307,
        13202,
        1,
        13306
      ],
      "additionalStreamingDependencies": [
        38,
        88,
        87,
        333,
        332,
        451,
        452,
        753,
        752,
        1028,
        1029
      ]
    },
    "tower_map_ga_005": {
      "id": "14c41eac",
      "size": 103994,
      "compSize": 77068,
      "path": "tower_map_ga_005",
      "pathHash": -328421239,
      "hash": 2595966566,
      "flags": [
        "Scene"
      ],
      "dependencies": [
        38365,
        38311,
        38373,
        38033,
        28636,
        38375,
        38376,
        38378,
        38306,
        38379,
        28317,
        38369,
        38269,
        38135,
        38370,
        13166,
        38374,
        38380,
        37884,
        38372,
        38304,
        38303,
        38366,
        38368,
        38032,
        34690,
        38377,
        28516,
        38367,
        38381,
        38371,
        37990
      ],
      "additionalDependencies": [],
      "additionalStreamingDependencies": []
    },
    "tower_map_ga_006": {
      "id": "66b3f112",
      "size": 98085,
      "compSize": 72785,
      "path": "tower_map_ga_006",
      "pathHash": -328421238,
      "hash": 3277555992,
      "flags": [
        "Scene"
      ],
      "dependencies": [
        38365,
        38388,
        38376,
        38378,
        28317,
        38271,
        38269,
        13166,
        38385,
        38380,
        37884,
        38268,
        38383,
        38366,
        38384,
        38386,
        34690,
        38389,
        38387,
        38377,
        38283,
        38034
      ],
      "additionalDependencies": [],
      "additionalStreamingDependencies": []
    },
    "tower_map_ga_007": {
      "id": "dfdf3eb2",
      "size": 94017,
      "compSize": 70631,
      "path": "tower_map_ga_007",
      "pathHash": -328421237,
      "hash": 765028432,
      "flags": [
        "Scene"
      ],
      "dependencies": [
        38365,
        38376,
        38378,
        38391,
        38394,
        38379,
        28317,
        38272,
        38271,
        38269,
        13166,
        38380,
        38393,
        37884,
        38304,
        38276,
        38268,
        38366,
        38305,
        38032,
        34690,
        38377,
        38283,
        38392,
        38034
      ],
      "additionalDependencies": [],
      "additionalStreamingDependencies": []
    },
    "tower_map_ga_008": {
      "id": "2e57d746",
      "size": 20697,
      "compSize": 16466,
      "path": "tower_map_ga_008",
      "pathHash": -328421236,
      "hash": 4282051104,
      "flags": [
        "Scene"
      ],
      "dependencies": [
        38398,
        38396,
        38378,
        38397,
        38379,
        38272,
        38271,
        38269,
        38380,
        37884,
        38304,
        38268,
        38305,
        38032,
        34690,
        38387,
        38377,
        38283,
        38034
      ],
      "additionalDependencies": [],
      "additionalStreamingDependencies": []
    },
    "Banners/BannerSprites": {
      "id": "e1b2945b",
      "size": 3351908,
      "compSize": 3096373,
      "path": "Banners/BannerSprites",
      "pathHash": -61519878,
      "hash": 1661208530,
      "flags": [
        "Tutorial"
      ],
      "dependencies": [],
      "additionalDependencies": [],
      "additionalStreamingDependencies": []
    },
    "LimitedShopBanner/LimitedShopSprites": {
      "id": "68d2f383",
      "size": 1166905,
      "compSize": 1095607,
      "path": "LimitedShopBanner/LimitedShopSprites",
      "pathHash": -1988666703,
      "hash": 3743803530,
      "flags": [
        "Tutorial"
      ],
      "dependencies": [],
      "additionalDependencies": [],
      "additionalStreamingDependencies": []
    },
    "EventShopBanner/EventShopSprites": {
      "id": "666f1085",
      "size": 1398483,
      "compSize": 1314828,
      "path": "EventShopBanner/EventShopSprites",
      "pathHash": 1659525489,
      "hash": 2721394510,
      "flags": [
        "Tutorial"
      ],
      "dependencies": [
        13348
      ],
      "additionalDependencies": [],
      "additionalStreamingDependencies": []
    },
    "AppealSprites/event": {
      "id": "0a3c00e1",
      "size": 122207,
      "compSize": 114343,
      "path": "AppealSprites/event",
      "pathHash": 1293026858,
      "hash": 636246921,
      "flags": [
        "Tutorial"
      ],
      "dependencies": [],
      "additionalDependencies": [],
      "additionalStreamingDependencies": []
    },
    "AppealSprites/gacha": {
      "id": "0f38dc67",
      "size": 134400,
      "compSize": 122359,
      "path": "AppealSprites/gacha",
      "pathHash": 1294246162,
      "hash": 3339501736,
      "flags": [
        "Tutorial"
      ],
      "dependencies": [],
      "additionalDependencies": [],
      "additionalStreamingDependencies": []
    },
    "AppealSprites/limitedshop": {
      "id": "d7ccee3b",
      "size": 42507,
      "compSize": 38919,
      "path": "AppealSprites/limitedshop",
      "pathHash": -1039172832,
      "hash": 496761492,
      "flags": [
        "Tutorial"
      ],
      "dependencies": [],
      "additionalDependencies": [],
      "additionalStreamingDependencies": []
    },
    "LoginInfo/LoginInfo": {
      "id": "78cd018e",
      "size": 4293539,
      "compSize": 3936207,
      "path": "LoginInfo/LoginInfo",
      "pathHash": 1312131871,
      "hash": 2412713862,
      "flags": [
        "Tutorial"
      ],
      "dependencies": [],
      "additionalDependencies": [],
      "additionalStreamingDependencies": []
    },
    "AwardImage/ExtraAwards": {
      "id": "326ef1d9",
      "size": 1049169,
      "compSize": 967863,
      "path": "AwardImage/ExtraAwards",
      "pathHash": 934435413,
      "hash": 2984171592,
      "flags": [
        "Tutorial"
      ],
      "dependencies": [],
      "additionalDependencies": [],
      "additionalStreamingDependencies": []
    }
  },
  "gameVersion": "f23dc34e:a",
  "version": "20181212_2476643aee6b3573ff2c2c8a105d6d88c0309630_566f2",
  "host": "https://alchemist-dlc2.gu3.jp"
}