{
  "revision": 10069413,
  "length": 40758,
  "assets": {
    "Data/QuestParam": {
      "id": "b9cc206f",
      "size": 230953,
      "compSize": 228374,
      "path": "Data/QuestParam",
      "pathHash": 1598764112,
      "hash": 3078157573,
      "flags": [
        "Compressed",
        "RawData",
        "Required"
      ],
      "dependencies": [],
      "additionalDependencies": [],
      "additionalStreamingDependencies": []
    }
  },
  "gameVersion": "01b655b3:a",
  "version": "20181018_7cd40130aab322e0b82dbca5bd79d08976103105_566f2",
  "host": "https://alchemist-dlc2.gu3.jp"
}